\begin{fajllista}


\fajl{./fieldelements:}{}{}{}
\fajl{BasicField.java}{3849 byte}{2016.04.26 13:10}{BasicField osztály}
\fajl{Door.java}{1798 byte}{2016.05.01 12:21}{Door osztály}
\fajl{FieldElement.java}{669 byte}{2016.05.01 12:23}{FieldElement osztály}
\fajl{Pit.java}{1554 byte}{2016.05.16 17:54}{Pit osztály}
\fajl{SpecialWall.java}{1855 byte}{2016.05.16 15:53}{SpecialWall osztály}
\fajl{Stargate.java}{1763 byte}{2016.05.16 15:32}{Stargate osztály}
\fajl{Switch.java}{2173 byte}{2016.05.16 18:16}{Switch osztály}
\fajl{Wall.java}{898 byte}{2016.04.26 13:17}{Wall osztály}
\fajl{Wormhole.java}{1570 byte}{2016.05.16 15:50}{Wormhole osztály}
\fajl{ZPM.java}{924 byte}{2016.05.16 16:02}{ZPM osztály}

\fajl{./game:}{}{}{}
\fajl{Controller.java}{6202 byte}{2016.05.16 19:19}{Controller osztály}
\fajl{KeyboardController.java}{3411 byte}{2016.05.17 11:51}{KeyboardController osztály}
\fajl{Logger.java}{751 byte}{2016.04.26 12:43}{Logger osztály}
\fajl{Main.java}{1889 byte}{2016.05.17 11:51}{Main osztály}
\fajl{Model.java}{17813 byte}{2016.05.17 11:51}{Model osztály}
\fajl{Nameable.java}{109 byte}{2016.04.23 20:56}{Nameable osztály}

\fajl{./movables:}{}{}{}
\fajl{Box.java}{1123 byte}{2016.05.15 17:15}{Box osztály}
\fajl{Bullet.java}{2381 byte}{2016.05.15 22:45}{Bullet osztály}
\fajl{Movable.java}{1057 byte}{2016.05.01 14:35}{Movable osztály}
\fajl{Replicator.java}{1969 byte}{2016.05.16 19:23}{Replicator osztály}
\fajl{SelfMovable.java}{1290 byte}{2016.05.16 18:30}{SelfMovable osztály}
\fajl{Soldier.java}{2556 byte}{2016.05.17 11:51}{Soldier osztály}

\fajl{./view:}{}{}{}
\fajl{Drawable.java}{1948 byte}{2016.05.17 11:51}{Drawable osztály}
\fajl{GameOver.java}{645 byte}{2016.05.17 11:51}{GameOver osztály}
\fajl{MainMenu.java}{1529 byte}{2016.05.17 11:51}{MainMenu osztály}
\fajl{View.java}{7289 byte}{2016.05.17 11:51}{View osztály}
\fajl{VisualBasicField.java}{756 byte}{2016.05.15 16:48}{VisualBasicField osztály}
\fajl{VisualBox.java}{717 byte}{2016.05.15 16:58}{VisualBox osztály}
\fajl{VisualDoorFactory.java}{1386 byte}{2016.05.15 16:58}{VisualDoorFactory osztály}
\fajl{VisualPit.java}{677 byte}{2016.05.15 16:58}{VisualPit osztály}
\fajl{VisualReplicator.java}{816 byte}{2016.05.15 17:00}{VisualReplicator osztály}
\fajl{VisualSoldierFactory.java}{3823 byte}{2016.05.16 17:42}{VisualSoldierFactory osztály}
\fajl{VisualSpecialWall.java}{807 byte}{2016.05.15 17:01}{VisualSpecialWall osztály}
\fajl{VisualStargateFactory.java}{2909 byte}{2016.05.16 14:39}{VisualStargateFactory osztály}
\fajl{VisualSwitchFactory.java}{1035 byte}{2016.05.01 13:35}{VisualSwitchFactory osztály}
\fajl{VisualWall.java}{415 byte}{2016.05.01 14:16}{VisualWall osztály}
\fajl{VisualZPM.java}{408 byte}{2016.05.01 14:54}{VisualZPM osztály}

\end{fajllista}