\relax 
\providecommand\hyper@newdestlabel[2]{}
\@setckpt{Resources/2.1.1_Cel.txt}{
\setcounter{page}{5}
\setcounter{equation}{0}
\setcounter{enumi}{0}
\setcounter{enumii}{0}
\setcounter{enumiii}{0}
\setcounter{enumiv}{0}
\setcounter{footnote}{0}
\setcounter{mpfootnote}{0}
\setcounter{part}{0}
\setcounter{chapter}{2}
\setcounter{section}{1}
\setcounter{subsection}{1}
\setcounter{subsubsection}{0}
\setcounter{paragraph}{0}
\setcounter{subparagraph}{0}
\setcounter{figure}{0}
\setcounter{table}{0}
\setcounter{footnote@add}{0}
\setcounter{footnote@ch}{0}
\setcounter{LT@tables}{0}
\setcounter{LT@chunks}{0}
\setcounter{float@type}{8}
\setcounter{lstnumber}{1}
\setcounter{Item}{0}
\setcounter{Hfootnote}{0}
\setcounter{bookmark@seq@number}{3}
\setcounter{lstlisting}{0}
\setcounter{section@level}{2}
}
