\relax 
\providecommand\hyper@newdestlabel[2]{}
\catcode \string ``=12
\providecommand\HyperFirstAtBeginDocument{\AtBeginDocument}
\HyperFirstAtBeginDocument{\ifx\hyper@anchor\@undefined
\global\let\oldcontentsline\contentsline
\gdef\contentsline#1#2#3#4{\oldcontentsline{#1}{#2}{#3}}
\global\let\oldnewlabel\newlabel
\gdef\newlabel#1#2{\newlabelxx{#1}#2}
\gdef\newlabelxx#1#2#3#4#5#6{\oldnewlabel{#1}{{#2}{#3}}}
\AtEndDocument{\ifx\hyper@anchor\@undefined
\let\contentsline\oldcontentsline
\let\newlabel\oldnewlabel
\fi}
\fi}
\global\let\hyper@last\relax 
\gdef\HyperFirstAtBeginDocument#1{#1}
\providecommand\HyField@AuxAddToFields[1]{}
\providecommand\HyField@AuxAddToCoFields[2]{}
\@writefile{toc}{\select@language{magyar} \contentsline {chapter}{\numberline {3}Anal\IeC {\'\i }zis modell kidolgoz\IeC {\'a}sa 1}{10}{chapter.3}}
\@writefile{lof}{\select@language{magyar} \addvspace {10\p@ }}
\@writefile{lot}{\select@language{magyar} \addvspace {10\p@ }}
\@writefile{lol}{\select@language{magyar} \addvspace {10\p@ }}
\@writefile{toc}{\select@language{magyar} \contentsline {section}{\numberline {3.1}Objektum katal\IeC {\'o}gus}{10}{section.3.1}}
\@writefile{toc}{\select@language{magyar} \contentsline {subsection}{\numberline {3.1.1}O'Neill ezredes}{10}{subsection.3.1.1}}
\@writefile{toc}{\select@language{magyar} \contentsline {subsection}{\numberline {3.1.2}Sima mez\IeC {\H o}}{10}{subsection.3.1.2}}
\@writefile{toc}{\select@language{magyar} \contentsline {subsection}{\numberline {3.1.3}Szakad\IeC {\'e}k}{10}{subsection.3.1.3}}
\@writefile{toc}{\select@language{magyar} \contentsline {subsection}{\numberline {3.1.4}M\IeC {\'e}rleg}{10}{subsection.3.1.4}}
\@writefile{toc}{\select@language{magyar} \contentsline {subsection}{\numberline {3.1.5}Ajt\IeC {\'o}}{10}{subsection.3.1.5}}
\@writefile{toc}{\select@language{magyar} \contentsline {subsection}{\numberline {3.1.6}Norm\IeC {\'a}l fal}{10}{subsection.3.1.6}}
\@writefile{toc}{\select@language{magyar} \contentsline {subsection}{\numberline {3.1.7}Speci\IeC {\'a}lis fal}{11}{subsection.3.1.7}}
\@writefile{toc}{\select@language{magyar} \contentsline {subsection}{\numberline {3.1.8}F\IeC {\'e}regj\IeC {\'a}rat}{11}{subsection.3.1.8}}
\@writefile{toc}{\select@language{magyar} \contentsline {subsection}{\numberline {3.1.9}Csillagkapu}{11}{subsection.3.1.9}}
\@writefile{toc}{\select@language{magyar} \contentsline {subsection}{\numberline {3.1.10}L\IeC {\"o}ved\IeC {\'e}k}{11}{subsection.3.1.10}}
\@writefile{toc}{\select@language{magyar} \contentsline {subsection}{\numberline {3.1.11}Doboz}{11}{subsection.3.1.11}}
\@writefile{toc}{\select@language{magyar} \contentsline {subsection}{\numberline {3.1.12}ZPM}{11}{subsection.3.1.12}}
\@writefile{toc}{\select@language{magyar} \contentsline {section}{\numberline {3.2}Statikus strukt\IeC {\'u}ra diagramok}{12}{section.3.2}}
\@writefile{lof}{\select@language{magyar} \contentsline {figure}{\numberline {\relax 3.1.}{\ignorespaces Oszt\IeC {\'a}lydiagram\relax }}{12}{figure.caption.3}}
\providecommand*\caption@xref[2]{\@setref\relax\@undefined{#1}}
\newlabel{fig:example1}{{\relax 3.1}{12}{Osztálydiagram\relax }{figure.caption.3}{}}
\@writefile{toc}{\select@language{magyar} \contentsline {section}{\numberline {3.3}Oszt\IeC {\'a}lyok le\IeC {\'\i }r\IeC {\'a}sa}{13}{section.3.3}}
\@writefile{toc}{\select@language{magyar} \contentsline {subsection}{\numberline {3.3.1}\textbf  {FieldElement}}{13}{subsection.3.3.1}}
\@writefile{toc}{\select@language{magyar} \contentsline {subsection}{\numberline {3.3.2}\textbf  {Basic Field}}{13}{subsection.3.3.2}}
\@writefile{toc}{\select@language{magyar} \contentsline {subsection}{\numberline {3.3.3}\textbf  {ZPM}}{14}{subsection.3.3.3}}
\@writefile{toc}{\select@language{magyar} \contentsline {subsection}{\numberline {3.3.4}\textbf  {Pit}}{14}{subsection.3.3.4}}
\@writefile{toc}{\select@language{magyar} \contentsline {subsection}{\numberline {3.3.5}\textbf  {Door}}{15}{subsection.3.3.5}}
\@writefile{toc}{\select@language{magyar} \contentsline {subsection}{\numberline {3.3.6}\textbf  {Switch}}{15}{subsection.3.3.6}}
\@writefile{toc}{\select@language{magyar} \contentsline {subsection}{\numberline {3.3.7}\textbf  {Wall}}{15}{subsection.3.3.7}}
\@writefile{toc}{\select@language{magyar} \contentsline {subsection}{\numberline {3.3.8}\textbf  {SpecialWall}}{16}{subsection.3.3.8}}
\@writefile{toc}{\select@language{magyar} \contentsline {subsection}{\numberline {3.3.9}\textbf  {Wormhole}}{16}{subsection.3.3.9}}
\@writefile{toc}{\select@language{magyar} \contentsline {subsection}{\numberline {3.3.10}\textbf  {Stargate}}{17}{subsection.3.3.10}}
\@writefile{toc}{\select@language{magyar} \contentsline {subsection}{\numberline {3.3.11}\textbf  {Movable}}{17}{subsection.3.3.11}}
\@writefile{toc}{\select@language{magyar} \contentsline {subsection}{\numberline {3.3.12}\textbf  {Box}}{18}{subsection.3.3.12}}
\@writefile{toc}{\select@language{magyar} \contentsline {subsection}{\numberline {3.3.13}\textbf  {SelfMovable}}{18}{subsection.3.3.13}}
\@writefile{toc}{\select@language{magyar} \contentsline {subsection}{\numberline {3.3.14}\textbf  {Soldier}}{19}{subsection.3.3.14}}
\@writefile{toc}{\select@language{magyar} \contentsline {subsection}{\numberline {3.3.15}\textbf  {Bullet}}{19}{subsection.3.3.15}}
\@writefile{toc}{\select@language{magyar} \contentsline {section}{\numberline {3.4}Szekvencia diagramok}{21}{section.3.4}}
\@writefile{lof}{\select@language{magyar} \contentsline {figure}{\numberline {\relax 3.2.}{\ignorespaces Interaction: Movement\relax }}{21}{figure.caption.4}}
\newlabel{fig:example2}{{\relax 3.2}{21}{Interaction: Movement\relax }{figure.caption.4}{}}
\@writefile{lof}{\select@language{magyar} \contentsline {figure}{\numberline {\relax 3.3.}{\ignorespaces Interaction: Wall and Bullet\relax }}{22}{figure.caption.5}}
\newlabel{fig:example3}{{\relax 3.3}{22}{Interaction: Wall and Bullet\relax }{figure.caption.5}{}}
\@writefile{lof}{\select@language{magyar} \contentsline {figure}{\numberline {\relax 3.4.}{\ignorespaces Interaction: Step\relax }}{23}{figure.caption.6}}
\newlabel{fig:example4}{{\relax 3.4}{23}{Interaction: Step\relax }{figure.caption.6}{}}
\@writefile{lof}{\select@language{magyar} \contentsline {figure}{\numberline {\relax 3.5.}{\ignorespaces Interaction: Soldier and SpecialWall\relax }}{24}{figure.caption.7}}
\newlabel{fig:example5}{{\relax 3.5}{24}{Interaction: Soldier and SpecialWall\relax }{figure.caption.7}{}}
\@writefile{lof}{\select@language{magyar} \contentsline {figure}{\numberline {\relax 3.6.}{\ignorespaces Interaction: SpecialWall and Box\relax }}{24}{figure.caption.8}}
\newlabel{fig:example6}{{\relax 3.6}{24}{Interaction: SpecialWall and Box\relax }{figure.caption.8}{}}
\@writefile{lof}{\select@language{magyar} \contentsline {figure}{\numberline {\relax 3.7.}{\ignorespaces Interaction: Door and Soldier\relax }}{25}{figure.caption.9}}
\newlabel{fig:example7}{{\relax 3.7}{25}{Interaction: Door and Soldier\relax }{figure.caption.9}{}}
\@writefile{lof}{\select@language{magyar} \contentsline {figure}{\numberline {\relax 3.8.}{\ignorespaces Interaction: Door and Bullet\relax }}{26}{figure.caption.10}}
\newlabel{fig:example8}{{\relax 3.8}{26}{Interaction: Door and Bullet\relax }{figure.caption.10}{}}
\@writefile{lof}{\select@language{magyar} \contentsline {figure}{\numberline {\relax 3.9.}{\ignorespaces Interaction: Switch and Soldier\relax }}{27}{figure.caption.11}}
\newlabel{fig:example9}{{\relax 3.9}{27}{Interaction: Switch and Soldier\relax }{figure.caption.11}{}}
\@writefile{lof}{\select@language{magyar} \contentsline {figure}{\numberline {\relax 3.10.}{\ignorespaces Interaction: Switch and Box\relax }}{27}{figure.caption.12}}
\newlabel{fig:example10}{{\relax 3.10}{27}{Interaction: Switch and Box\relax }{figure.caption.12}{}}
\@writefile{lof}{\select@language{magyar} \contentsline {figure}{\numberline {\relax 3.11.}{\ignorespaces Interaction: Switch and Bullet\relax }}{28}{figure.caption.13}}
\newlabel{fig:example11}{{\relax 3.11}{28}{Interaction: Switch and Bullet\relax }{figure.caption.13}{}}
\@writefile{lof}{\select@language{magyar} \contentsline {figure}{\numberline {\relax 3.12.}{\ignorespaces Interaction: Pit and Soldier\relax }}{29}{figure.caption.14}}
\newlabel{fig:example12}{{\relax 3.12}{29}{Interaction: Pit and Soldier\relax }{figure.caption.14}{}}
\@writefile{lof}{\select@language{magyar} \contentsline {figure}{\numberline {\relax 3.13.}{\ignorespaces Interaction: Pit and Box\relax }}{30}{figure.caption.15}}
\newlabel{fig:example13}{{\relax 3.13}{30}{Interaction: Pit and Box\relax }{figure.caption.15}{}}
\@writefile{lof}{\select@language{magyar} \contentsline {figure}{\numberline {\relax 3.14.}{\ignorespaces Interaction: Pit and Bullet\relax }}{30}{figure.caption.16}}
\newlabel{fig:example14}{{\relax 3.14}{30}{Interaction: Pit and Bullet\relax }{figure.caption.16}{}}
\@writefile{lof}{\select@language{magyar} \contentsline {figure}{\numberline {\relax 3.15.}{\ignorespaces Interaction: ZPM and Soldier\relax }}{31}{figure.caption.17}}
\newlabel{fig:example15}{{\relax 3.15}{31}{Interaction: ZPM and Soldier\relax }{figure.caption.17}{}}
\@writefile{lof}{\select@language{magyar} \contentsline {figure}{\numberline {\relax 3.16.}{\ignorespaces Interaction: ZPM and Box\relax }}{32}{figure.caption.18}}
\newlabel{fig:example16}{{\relax 3.16}{32}{Interaction: ZPM and Box\relax }{figure.caption.18}{}}
\@writefile{lof}{\select@language{magyar} \contentsline {figure}{\numberline {\relax 3.17.}{\ignorespaces Interaction: ZPM and Bullet\relax }}{33}{figure.caption.19}}
\newlabel{fig:example17}{{\relax 3.17}{33}{Interaction: ZPM and Bullet\relax }{figure.caption.19}{}}
\@writefile{lof}{\select@language{magyar} \contentsline {figure}{\numberline {\relax 3.18.}{\ignorespaces Interaction: Update Switch\relax }}{33}{figure.caption.20}}
\newlabel{fig:example18}{{\relax 3.18}{33}{Interaction: Update Switch\relax }{figure.caption.20}{}}
\@writefile{lof}{\select@language{magyar} \contentsline {figure}{\numberline {\relax 3.19.}{\ignorespaces Interaction: Movable interaction\relax }}{34}{figure.caption.21}}
\newlabel{fig:example19}{{\relax 3.19}{34}{Interaction: Movable interaction\relax }{figure.caption.21}{}}
\@writefile{lof}{\select@language{magyar} \contentsline {figure}{\numberline {\relax 3.20.}{\ignorespaces Interaction: Soldier and Box\relax }}{35}{figure.caption.22}}
\newlabel{fig:example20}{{\relax 3.20}{35}{Interaction: Soldier and Box\relax }{figure.caption.22}{}}
\@writefile{lof}{\select@language{magyar} \contentsline {figure}{\numberline {\relax 3.21.}{\ignorespaces Interaction: Box and Soldier\relax }}{36}{figure.caption.23}}
\newlabel{fig:example21}{{\relax 3.21}{36}{Interaction: Box and Soldier\relax }{figure.caption.23}{}}
\@writefile{lof}{\select@language{magyar} \contentsline {figure}{\numberline {\relax 3.22.}{\ignorespaces Interaction: Box placement\relax }}{37}{figure.caption.24}}
\newlabel{fig:example22}{{\relax 3.22}{37}{Interaction: Box placement\relax }{figure.caption.24}{}}
\@writefile{lof}{\select@language{magyar} \contentsline {figure}{\numberline {\relax 3.23.}{\ignorespaces Interaction: Shoot\relax }}{38}{figure.caption.25}}
\newlabel{fig:example23}{{\relax 3.23}{38}{Interaction: Shoot\relax }{figure.caption.25}{}}
\@writefile{toc}{\select@language{magyar} \contentsline {section}{\numberline {3.5}State-chartok}{39}{section.3.5}}
\@writefile{lof}{\select@language{magyar} \contentsline {figure}{\numberline {\relax 3.24.}{\ignorespaces Switch State\relax }}{39}{figure.caption.26}}
\newlabel{fig:example24}{{\relax 3.24}{39}{Switch State\relax }{figure.caption.26}{}}
\@writefile{lof}{\select@language{magyar} \contentsline {figure}{\numberline {\relax 3.25.}{\ignorespaces Door State\relax }}{39}{figure.caption.27}}
\newlabel{fig:example25}{{\relax 3.25}{39}{Door State\relax }{figure.caption.27}{}}
\@writefile{lof}{\select@language{magyar} \contentsline {figure}{\numberline {\relax 3.26.}{\ignorespaces Direction Statechart\relax }}{40}{figure.caption.28}}
\newlabel{fig:example26}{{\relax 3.26}{40}{Direction Statechart\relax }{figure.caption.28}{}}
\@writefile{toc}{\select@language{magyar} \contentsline {section}{\numberline {3.6}Napl\IeC {\'o}}{41}{section.3.6}}
\gdef \LT@i {\LT@entry 
    {3}{91.6678pt}\LT@entry 
    {3}{74.59596pt}\LT@entry 
    {3}{97.35826pt}\LT@entry 
    {3}{211.16928pt}}
\@writefile{toc}{\select@language{magyar} \contentsline {chapter}{\numberline {4}Anal\IeC {\'\i }zis modell kidolgoz\IeC {\'a}sa 2}{43}{chapter.4}}
\@writefile{lof}{\select@language{magyar} \addvspace {10\p@ }}
\@writefile{lot}{\select@language{magyar} \addvspace {10\p@ }}
\@writefile{lol}{\select@language{magyar} \addvspace {10\p@ }}
\@writefile{toc}{\select@language{magyar} \contentsline {section}{\numberline {4.1}Objektum katal\IeC {\'o}gus}{43}{section.4.1}}
\@writefile{toc}{\select@language{magyar} \contentsline {subsection}{\numberline {4.1.1}O'Neill ezredes}{43}{subsection.4.1.1}}
\@writefile{toc}{\select@language{magyar} \contentsline {subsection}{\numberline {4.1.2}Sima mez\IeC {\H o}}{43}{subsection.4.1.2}}
\@writefile{toc}{\select@language{magyar} \contentsline {subsection}{\numberline {4.1.3}Szakad\IeC {\'e}k}{43}{subsection.4.1.3}}
\@writefile{toc}{\select@language{magyar} \contentsline {subsection}{\numberline {4.1.4}M\IeC {\'e}rleg}{43}{subsection.4.1.4}}
\@writefile{toc}{\select@language{magyar} \contentsline {subsection}{\numberline {4.1.5}Ajt\IeC {\'o}}{43}{subsection.4.1.5}}
\@writefile{toc}{\select@language{magyar} \contentsline {subsection}{\numberline {4.1.6}Norm\IeC {\'a}l fal}{43}{subsection.4.1.6}}
\@writefile{toc}{\select@language{magyar} \contentsline {subsection}{\numberline {4.1.7}Speci\IeC {\'a}lis fal}{44}{subsection.4.1.7}}
\@writefile{toc}{\select@language{magyar} \contentsline {subsection}{\numberline {4.1.8}F\IeC {\'e}regj\IeC {\'a}rat}{44}{subsection.4.1.8}}
\@writefile{toc}{\select@language{magyar} \contentsline {subsection}{\numberline {4.1.9}Csillagkapu}{44}{subsection.4.1.9}}
\@writefile{toc}{\select@language{magyar} \contentsline {subsection}{\numberline {4.1.10}L\IeC {\"o}ved\IeC {\'e}k}{44}{subsection.4.1.10}}
\@writefile{toc}{\select@language{magyar} \contentsline {subsection}{\numberline {4.1.11}Doboz}{44}{subsection.4.1.11}}
\@writefile{toc}{\select@language{magyar} \contentsline {subsection}{\numberline {4.1.12}ZPM}{44}{subsection.4.1.12}}
\@writefile{toc}{\select@language{magyar} \contentsline {section}{\numberline {4.2}Statikus strukt\IeC {\'u}ra diagramok}{45}{section.4.2}}
\@writefile{lof}{\select@language{magyar} \contentsline {figure}{\numberline {\relax 4.1.}{\ignorespaces Oszt\IeC {\'a}lydiagram\relax }}{45}{figure.caption.29}}
\newlabel{fig:example1}{{\relax 4.1}{45}{Osztálydiagram\relax }{figure.caption.29}{}}
\@writefile{toc}{\select@language{magyar} \contentsline {section}{\numberline {4.3}Oszt\IeC {\'a}lyok le\IeC {\'\i }r\IeC {\'a}sa}{46}{section.4.3}}
\@writefile{toc}{\select@language{magyar} \contentsline {subsection}{\numberline {4.3.1}\textbf  {FieldElement}}{46}{subsection.4.3.1}}
\@writefile{toc}{\select@language{magyar} \contentsline {subsection}{\numberline {4.3.2}\textbf  {Basic Field}}{46}{subsection.4.3.2}}
\@writefile{toc}{\select@language{magyar} \contentsline {subsection}{\numberline {4.3.3}\textbf  {ZPM}}{47}{subsection.4.3.3}}
\@writefile{toc}{\select@language{magyar} \contentsline {subsection}{\numberline {4.3.4}\textbf  {Pit}}{47}{subsection.4.3.4}}
\@writefile{toc}{\select@language{magyar} \contentsline {subsection}{\numberline {4.3.5}\textbf  {Door}}{48}{subsection.4.3.5}}
\@writefile{toc}{\select@language{magyar} \contentsline {subsection}{\numberline {4.3.6}\textbf  {Switch}}{48}{subsection.4.3.6}}
\@writefile{toc}{\select@language{magyar} \contentsline {subsection}{\numberline {4.3.7}\textbf  {Wall}}{49}{subsection.4.3.7}}
\@writefile{toc}{\select@language{magyar} \contentsline {subsection}{\numberline {4.3.8}\textbf  {SpecialWall}}{49}{subsection.4.3.8}}
\@writefile{toc}{\select@language{magyar} \contentsline {subsection}{\numberline {4.3.9}\textbf  {Wormhole}}{49}{subsection.4.3.9}}
\@writefile{toc}{\select@language{magyar} \contentsline {subsection}{\numberline {4.3.10}\textbf  {Stargate}}{50}{subsection.4.3.10}}
\@writefile{toc}{\select@language{magyar} \contentsline {subsection}{\numberline {4.3.11}\textbf  {Movable}}{50}{subsection.4.3.11}}
\@writefile{toc}{\select@language{magyar} \contentsline {subsection}{\numberline {4.3.12}\textbf  {Box}}{51}{subsection.4.3.12}}
\@writefile{toc}{\select@language{magyar} \contentsline {subsection}{\numberline {4.3.13}\textbf  {SelfMovable}}{52}{subsection.4.3.13}}
\@writefile{toc}{\select@language{magyar} \contentsline {subsection}{\numberline {4.3.14}\textbf  {Soldier}}{52}{subsection.4.3.14}}
\@writefile{toc}{\select@language{magyar} \contentsline {subsection}{\numberline {4.3.15}\textbf  {Bullet}}{53}{subsection.4.3.15}}
\@writefile{toc}{\select@language{magyar} \contentsline {section}{\numberline {4.4}Szekvencia diagramok}{54}{section.4.4}}
\@writefile{lof}{\select@language{magyar} \contentsline {figure}{\numberline {\relax 4.2.}{\ignorespaces Interaction: Movement\relax }}{54}{figure.caption.30}}
\newlabel{fig:example2}{{\relax 4.2}{54}{Interaction: Movement\relax }{figure.caption.30}{}}
\@writefile{lof}{\select@language{magyar} \contentsline {figure}{\numberline {\relax 4.3.}{\ignorespaces Interaction: Step\relax }}{55}{figure.caption.31}}
\newlabel{fig:example3}{{\relax 4.3}{55}{Interaction: Step\relax }{figure.caption.31}{}}
\@writefile{lof}{\select@language{magyar} \contentsline {figure}{\numberline {\relax 4.4.}{\ignorespaces Interaction: Pit and Soldier\relax }}{55}{figure.caption.32}}
\newlabel{fig:example4}{{\relax 4.4}{55}{Interaction: Pit and Soldier\relax }{figure.caption.32}{}}
\@writefile{lof}{\select@language{magyar} \contentsline {figure}{\numberline {\relax 4.5.}{\ignorespaces Interaction: Pit and Box\relax }}{55}{figure.caption.33}}
\newlabel{fig:example5}{{\relax 4.5}{55}{Interaction: Pit and Box\relax }{figure.caption.33}{}}
\@writefile{lof}{\select@language{magyar} \contentsline {figure}{\numberline {\relax 4.6.}{\ignorespaces Interaction: Pit and Bullet\relax }}{56}{figure.caption.34}}
\newlabel{fig:example6}{{\relax 4.6}{56}{Interaction: Pit and Bullet\relax }{figure.caption.34}{}}
\@writefile{lof}{\select@language{magyar} \contentsline {figure}{\numberline {\relax 4.7.}{\ignorespaces Interaction: ZPM and Soldier\relax }}{56}{figure.caption.35}}
\newlabel{fig:example7}{{\relax 4.7}{56}{Interaction: ZPM and Soldier\relax }{figure.caption.35}{}}
\@writefile{lof}{\select@language{magyar} \contentsline {figure}{\numberline {\relax 4.8.}{\ignorespaces Interaction: ZPM and Box\relax }}{56}{figure.caption.36}}
\newlabel{fig:example8}{{\relax 4.8}{56}{Interaction: ZPM and Box\relax }{figure.caption.36}{}}
\@writefile{lof}{\select@language{magyar} \contentsline {figure}{\numberline {\relax 4.9.}{\ignorespaces Interaction: ZPM and Bullet\relax }}{57}{figure.caption.37}}
\newlabel{fig:example9}{{\relax 4.9}{57}{Interaction: ZPM and Bullet\relax }{figure.caption.37}{}}
\@writefile{lof}{\select@language{magyar} \contentsline {figure}{\numberline {\relax 4.10.}{\ignorespaces Interaction: Leave switch\relax }}{57}{figure.caption.38}}
\newlabel{fig:example10}{{\relax 4.10}{57}{Interaction: Leave switch\relax }{figure.caption.38}{}}
\@writefile{lof}{\select@language{magyar} \contentsline {figure}{\numberline {\relax 4.11.}{\ignorespaces Interaction: Movable Interaction\relax }}{58}{figure.caption.39}}
\newlabel{fig:example11}{{\relax 4.11}{58}{Interaction: Movable Interaction\relax }{figure.caption.39}{}}
\@writefile{lof}{\select@language{magyar} \contentsline {figure}{\numberline {\relax 4.12.}{\ignorespaces Interaction: Wall and Soldier\relax }}{58}{figure.caption.40}}
\newlabel{fig:example12}{{\relax 4.12}{58}{Interaction: Wall and Soldier\relax }{figure.caption.40}{}}
\@writefile{lof}{\select@language{magyar} \contentsline {figure}{\numberline {\relax 4.13.}{\ignorespaces Interaction: Door and Soldier\relax }}{59}{figure.caption.41}}
\newlabel{fig:example13}{{\relax 4.13}{59}{Interaction: Door and Soldier\relax }{figure.caption.41}{}}
\@writefile{lof}{\select@language{magyar} \contentsline {figure}{\numberline {\relax 4.14.}{\ignorespaces Interaction: Soldier and Box\relax }}{59}{figure.caption.42}}
\newlabel{fig:example14}{{\relax 4.14}{59}{Interaction: Soldier and Box\relax }{figure.caption.42}{}}
\@writefile{lof}{\select@language{magyar} \contentsline {figure}{\numberline {\relax 4.15.}{\ignorespaces Interaction: Box and Soldier\relax }}{60}{figure.caption.43}}
\newlabel{fig:example15}{{\relax 4.15}{60}{Interaction: Box and Soldier\relax }{figure.caption.43}{}}
\@writefile{lof}{\select@language{magyar} \contentsline {figure}{\numberline {\relax 4.16.}{\ignorespaces Interaction: Box placement\relax }}{60}{figure.caption.44}}
\newlabel{fig:example16}{{\relax 4.16}{60}{Interaction: Box placement\relax }{figure.caption.44}{}}
\@writefile{lof}{\select@language{magyar} \contentsline {figure}{\numberline {\relax 4.17.}{\ignorespaces Interaction: Shoot\relax }}{61}{figure.caption.45}}
\newlabel{fig:example17}{{\relax 4.17}{61}{Interaction: Shoot\relax }{figure.caption.45}{}}
\@writefile{lof}{\select@language{magyar} \contentsline {figure}{\numberline {\relax 4.18.}{\ignorespaces Interaction: Wall and Bullet\relax }}{61}{figure.caption.46}}
\newlabel{fig:example18}{{\relax 4.18}{61}{Interaction: Wall and Bullet\relax }{figure.caption.46}{}}
\@writefile{lof}{\select@language{magyar} \contentsline {figure}{\numberline {\relax 4.19.}{\ignorespaces Interaction: SpecialWall and Soldier\relax }}{61}{figure.caption.47}}
\newlabel{fig:example19}{{\relax 4.19}{61}{Interaction: SpecialWall and Soldier\relax }{figure.caption.47}{}}
\@writefile{lof}{\select@language{magyar} \contentsline {figure}{\numberline {\relax 4.20.}{\ignorespaces Interaction: SpecialWall and Bullet\relax }}{62}{figure.caption.48}}
\newlabel{fig:example20}{{\relax 4.20}{62}{Interaction: SpecialWall and Bullet\relax }{figure.caption.48}{}}
\@writefile{lof}{\select@language{magyar} \contentsline {figure}{\numberline {\relax 4.21.}{\ignorespaces Interaction: Door and Bullet\relax }}{62}{figure.caption.49}}
\newlabel{fig:example21}{{\relax 4.21}{62}{Interaction: Door and Bullet\relax }{figure.caption.49}{}}
\@writefile{lof}{\select@language{magyar} \contentsline {figure}{\numberline {\relax 4.22.}{\ignorespaces Interaction: Switch and Movable\relax }}{63}{figure.caption.50}}
\newlabel{fig:example22}{{\relax 4.22}{63}{Interaction: Switch and Movable\relax }{figure.caption.50}{}}
\@writefile{toc}{\select@language{magyar} \contentsline {section}{\numberline {4.5}State-chartok}{64}{section.4.5}}
\@writefile{lof}{\select@language{magyar} \contentsline {figure}{\numberline {\relax 4.23.}{\ignorespaces Direction Statechart\relax }}{64}{figure.caption.51}}
\newlabel{fig:example23}{{\relax 4.23}{64}{Direction Statechart\relax }{figure.caption.51}{}}
\@writefile{lof}{\select@language{magyar} \contentsline {figure}{\numberline {\relax 4.24.}{\ignorespaces Door State\relax }}{64}{figure.caption.52}}
\newlabel{fig:example24}{{\relax 4.24}{64}{Door State\relax }{figure.caption.52}{}}
\gdef \LT@ii {\LT@entry 
    {3}{91.6678pt}\LT@entry 
    {3}{74.59596pt}\LT@entry 
    {3}{97.35826pt}\LT@entry 
    {3}{211.16928pt}}
\@writefile{toc}{\select@language{magyar} \contentsline {section}{\numberline {4.6}Napl\IeC {\'o}}{65}{section.4.6}}
\@writefile{toc}{\select@language{magyar} \contentsline {chapter}{\numberline {5}Szkeleton tervez\IeC {\'e}se}{66}{chapter.5}}
\@writefile{lof}{\select@language{magyar} \addvspace {10\p@ }}
\@writefile{lot}{\select@language{magyar} \addvspace {10\p@ }}
\@writefile{lol}{\select@language{magyar} \addvspace {10\p@ }}
\@writefile{toc}{\select@language{magyar} \contentsline {section}{\numberline {5.1}A szkeleton modell val\IeC {\'o}s\IeC {\'a}gos use-case-ei}{66}{section.5.1}}
\@writefile{toc}{\select@language{magyar} \contentsline {subsection}{\numberline {5.1.1}Use-case diagram}{66}{subsection.5.1.1}}
\@writefile{lof}{\select@language{magyar} \contentsline {figure}{\numberline {\relax 5.1.}{\ignorespaces Use-case diagram\relax }}{66}{figure.caption.53}}
\newlabel{fig:SzkeletonUseCase}{{\relax 5.1}{66}{Use-case diagram\relax }{figure.caption.53}{}}
\gdef \LT@iii {\LT@entry 
    {1}{75.8816pt}\LT@entry 
    {1}{296.52756pt}}
\gdef \LT@iv {\LT@entry 
    {1}{75.8816pt}\LT@entry 
    {1}{296.52756pt}}
\gdef \LT@v {\LT@entry 
    {1}{75.8816pt}\LT@entry 
    {1}{296.52756pt}}
\gdef \LT@vi {\LT@entry 
    {1}{75.8816pt}\LT@entry 
    {1}{296.52756pt}}
\gdef \LT@vii {\LT@entry 
    {1}{75.8816pt}\LT@entry 
    {1}{296.52756pt}}
\gdef \LT@viii {\LT@entry 
    {1}{75.8816pt}\LT@entry 
    {1}{296.52756pt}}
\gdef \LT@ix {\LT@entry 
    {1}{75.8816pt}\LT@entry 
    {1}{296.52756pt}}
\gdef \LT@x {\LT@entry 
    {1}{75.8816pt}\LT@entry 
    {1}{296.52756pt}}
\@writefile{toc}{\select@language{magyar} \contentsline {subsection}{\numberline {5.1.2}Use-case le\IeC {\'\i }r\IeC {\'a}sok}{67}{subsection.5.1.2}}
\gdef \LT@xi {\LT@entry 
    {1}{75.8816pt}\LT@entry 
    {1}{296.52756pt}}
\gdef \LT@xii {\LT@entry 
    {1}{75.8816pt}\LT@entry 
    {1}{296.52756pt}}
\gdef \LT@xiii {\LT@entry 
    {1}{75.8816pt}\LT@entry 
    {1}{296.52756pt}}
\gdef \LT@xiv {\LT@entry 
    {1}{75.8816pt}\LT@entry 
    {1}{296.52756pt}}
\gdef \LT@xv {\LT@entry 
    {1}{75.8816pt}\LT@entry 
    {1}{296.52756pt}}
\gdef \LT@xvi {\LT@entry 
    {1}{75.8816pt}\LT@entry 
    {1}{296.52756pt}}
\gdef \LT@xvii {\LT@entry 
    {1}{75.8816pt}\LT@entry 
    {1}{296.52756pt}}
\gdef \LT@xviii {\LT@entry 
    {1}{75.8816pt}\LT@entry 
    {1}{296.52756pt}}
\gdef \LT@xix {\LT@entry 
    {1}{75.8816pt}\LT@entry 
    {1}{296.52756pt}}
\gdef \LT@xx {\LT@entry 
    {1}{75.8816pt}\LT@entry 
    {1}{296.52756pt}}
\gdef \LT@xxi {\LT@entry 
    {1}{75.8816pt}\LT@entry 
    {1}{296.52756pt}}
\gdef \LT@xxii {\LT@entry 
    {1}{75.8816pt}\LT@entry 
    {1}{296.52756pt}}
\gdef \LT@xxiii {\LT@entry 
    {1}{75.8816pt}\LT@entry 
    {1}{296.52756pt}}
\gdef \LT@xxiv {\LT@entry 
    {1}{75.8816pt}\LT@entry 
    {1}{296.52756pt}}
\@writefile{toc}{\select@language{magyar} \contentsline {section}{\numberline {5.2}A szkeleton kezel\IeC {\H o}i fel\IeC {\"u}let\IeC {\'e}nek terve, dial\IeC {\'o}gusok}{71}{section.5.2}}
\@writefile{lof}{\select@language{magyar} \contentsline {figure}{\numberline {\relax 5.2.}{\ignorespaces P\IeC {\'e}ldakimenet\relax }}{72}{figure.caption.54}}
\newlabel{fig:Rotation}{{\relax 5.2}{72}{Példakimenet\relax }{figure.caption.54}{}}
\@writefile{toc}{\select@language{magyar} \contentsline {section}{\numberline {5.3}Szekvencia diagramok a bels\IeC {\H o} m\IeC {\H u}k\IeC {\"o}d\IeC {\'e}sre}{73}{section.5.3}}
\@writefile{lof}{\select@language{magyar} \contentsline {figure}{\numberline {\relax 5.3.}{\ignorespaces Bullet and BasicField\relax }}{73}{figure.caption.55}}
\newlabel{fig:Open Door and Bullet}{{\relax 5.3}{73}{Bullet and BasicField\relax }{figure.caption.55}{}}
\@writefile{lof}{\select@language{magyar} \contentsline {figure}{\numberline {\relax 5.4.}{\ignorespaces Bullet and closed Door\relax }}{74}{figure.caption.56}}
\newlabel{fig:Wall and closed Door}{{\relax 5.4}{74}{Bullet and closed Door\relax }{figure.caption.56}{}}
\@writefile{lof}{\select@language{magyar} \contentsline {figure}{\numberline {\relax 5.5.}{\ignorespaces Bullet and open Door\relax }}{75}{figure.caption.57}}
\newlabel{fig:Gate on SpecialWall}{{\relax 5.5}{75}{Bullet and open Door\relax }{figure.caption.57}{}}
\@writefile{lof}{\select@language{magyar} \contentsline {figure}{\numberline {\relax 5.6.}{\ignorespaces SpecialWall and Bullet: first gate\relax }}{76}{figure.caption.58}}
\newlabel{fig:SpecialWall and Bullet}{{\relax 5.6}{76}{SpecialWall and Bullet: first gate\relax }{figure.caption.58}{}}
\@writefile{lof}{\select@language{magyar} \contentsline {figure}{\numberline {\relax 5.7.}{\ignorespaces SpecialWall and Bullet\relax }}{77}{figure.caption.59}}
\newlabel{fig:Shoot}{{\relax 5.7}{77}{SpecialWall and Bullet\relax }{figure.caption.59}{}}
\@writefile{lof}{\select@language{magyar} \contentsline {figure}{\numberline {\relax 5.8.}{\ignorespaces Bullet and Wall\relax }}{78}{figure.caption.60}}
\newlabel{fig:Rotation}{{\relax 5.8}{78}{Bullet and Wall\relax }{figure.caption.60}{}}
\@writefile{lof}{\select@language{magyar} \contentsline {figure}{\numberline {\relax 5.9.}{\ignorespaces O'Neil put down box\relax }}{79}{figure.caption.61}}
\newlabel{fig:Rotation}{{\relax 5.9}{79}{O'Neil put down box\relax }{figure.caption.61}{}}
\@writefile{lof}{\select@language{magyar} \contentsline {figure}{\numberline {\relax 5.10.}{\ignorespaces O'Neil cannot put down box\relax }}{79}{figure.caption.62}}
\newlabel{fig:Rotation}{{\relax 5.10}{79}{O'Neil cannot put down box\relax }{figure.caption.62}{}}
\@writefile{lof}{\select@language{magyar} \contentsline {figure}{\numberline {\relax 5.11.}{\ignorespaces O'Neil picks up box\relax }}{80}{figure.caption.63}}
\newlabel{fig:Rotation}{{\relax 5.11}{80}{O'Neil picks up box\relax }{figure.caption.63}{}}
\@writefile{lof}{\select@language{magyar} \contentsline {figure}{\numberline {\relax 5.12.}{\ignorespaces O'Neil cannot pick up box\relax }}{80}{figure.caption.64}}
\newlabel{fig:Rotation}{{\relax 5.12}{80}{O'Neil cannot pick up box\relax }{figure.caption.64}{}}
\@writefile{lof}{\select@language{magyar} \contentsline {figure}{\numberline {\relax 5.13.}{\ignorespaces O'Neil steps to BasicField\relax }}{81}{figure.caption.65}}
\newlabel{fig:Rotation}{{\relax 5.13}{81}{O'Neil steps to BasicField\relax }{figure.caption.65}{}}
\@writefile{lof}{\select@language{magyar} \contentsline {figure}{\numberline {\relax 5.14.}{\ignorespaces O'Neil steps closed door\relax }}{81}{figure.caption.66}}
\newlabel{fig:Rotation}{{\relax 5.14}{81}{O'Neil steps closed door\relax }{figure.caption.66}{}}
\@writefile{lof}{\select@language{magyar} \contentsline {figure}{\numberline {\relax 5.15.}{\ignorespaces O'Neil steps into open door\relax }}{82}{figure.caption.67}}
\newlabel{fig:Rotation}{{\relax 5.15}{82}{O'Neil steps into open door\relax }{figure.caption.67}{}}
\@writefile{lof}{\select@language{magyar} \contentsline {figure}{\numberline {\relax 5.16.}{\ignorespaces O'Neil steps into Stargate\relax }}{83}{figure.caption.68}}
\newlabel{fig:Rotation}{{\relax 5.16}{83}{O'Neil steps into Stargate\relax }{figure.caption.68}{}}
\@writefile{lof}{\select@language{magyar} \contentsline {figure}{\numberline {\relax 5.17.}{\ignorespaces O'Neil steps to Switch\relax }}{84}{figure.caption.69}}
\newlabel{fig:Rotation}{{\relax 5.17}{84}{O'Neil steps to Switch\relax }{figure.caption.69}{}}
\@writefile{lof}{\select@language{magyar} \contentsline {figure}{\numberline {\relax 5.18.}{\ignorespaces O'Neil steps to Wall\relax }}{85}{figure.caption.70}}
\newlabel{fig:Rotation}{{\relax 5.18}{85}{O'Neil steps to Wall\relax }{figure.caption.70}{}}
\@writefile{lof}{\select@language{magyar} \contentsline {figure}{\numberline {\relax 5.19.}{\ignorespaces O'Neil steps to ZPM\relax }}{86}{figure.caption.71}}
\newlabel{fig:Rotation}{{\relax 5.19}{86}{O'Neil steps to ZPM\relax }{figure.caption.71}{}}
\@writefile{toc}{\select@language{magyar} \contentsline {section}{\numberline {5.4}Kommunik\IeC {\'a}ci\IeC {\'o}s diagramok}{87}{section.5.4}}
\@writefile{lof}{\select@language{magyar} \contentsline {figure}{\numberline {\relax 5.20.}{\ignorespaces Bullet and BasicField\relax }}{87}{figure.caption.72}}
\newlabel{fig:Open Door and Bullet}{{\relax 5.20}{87}{Bullet and BasicField\relax }{figure.caption.72}{}}
\@writefile{lof}{\select@language{magyar} \contentsline {figure}{\numberline {\relax 5.21.}{\ignorespaces Bullet and closed Door\relax }}{87}{figure.caption.73}}
\newlabel{fig:Wall and closed Door}{{\relax 5.21}{87}{Bullet and closed Door\relax }{figure.caption.73}{}}
\@writefile{lof}{\select@language{magyar} \contentsline {figure}{\numberline {\relax 5.22.}{\ignorespaces Bullet and open Door\relax }}{88}{figure.caption.74}}
\newlabel{fig:Gate on SpecialWall}{{\relax 5.22}{88}{Bullet and open Door\relax }{figure.caption.74}{}}
\@writefile{lof}{\select@language{magyar} \contentsline {figure}{\numberline {\relax 5.23.}{\ignorespaces SpecialWall and Bullet: first gate\relax }}{88}{figure.caption.75}}
\newlabel{fig:SpecialWall and Bullet}{{\relax 5.23}{88}{SpecialWall and Bullet: first gate\relax }{figure.caption.75}{}}
\@writefile{lof}{\select@language{magyar} \contentsline {figure}{\numberline {\relax 5.24.}{\ignorespaces SpecialWall and Bullet\relax }}{89}{figure.caption.76}}
\newlabel{fig:Shoot}{{\relax 5.24}{89}{SpecialWall and Bullet\relax }{figure.caption.76}{}}
\@writefile{lof}{\select@language{magyar} \contentsline {figure}{\numberline {\relax 5.25.}{\ignorespaces Bullet and Wall\relax }}{89}{figure.caption.77}}
\newlabel{fig:Rotation}{{\relax 5.25}{89}{Bullet and Wall\relax }{figure.caption.77}{}}
\@writefile{lof}{\select@language{magyar} \contentsline {figure}{\numberline {\relax 5.26.}{\ignorespaces O'Neil put down box\relax }}{90}{figure.caption.78}}
\newlabel{fig:Rotation}{{\relax 5.26}{90}{O'Neil put down box\relax }{figure.caption.78}{}}
\@writefile{lof}{\select@language{magyar} \contentsline {figure}{\numberline {\relax 5.27.}{\ignorespaces O'Neil cannot put down box\relax }}{90}{figure.caption.79}}
\newlabel{fig:Rotation}{{\relax 5.27}{90}{O'Neil cannot put down box\relax }{figure.caption.79}{}}
\@writefile{lof}{\select@language{magyar} \contentsline {figure}{\numberline {\relax 5.28.}{\ignorespaces O'Neil picks up box\relax }}{91}{figure.caption.80}}
\newlabel{fig:Rotation}{{\relax 5.28}{91}{O'Neil picks up box\relax }{figure.caption.80}{}}
\@writefile{lof}{\select@language{magyar} \contentsline {figure}{\numberline {\relax 5.29.}{\ignorespaces O'Neil cannot pick up box\relax }}{91}{figure.caption.81}}
\newlabel{fig:Rotation}{{\relax 5.29}{91}{O'Neil cannot pick up box\relax }{figure.caption.81}{}}
\@writefile{lof}{\select@language{magyar} \contentsline {figure}{\numberline {\relax 5.30.}{\ignorespaces O'Neil steps to BasicField\relax }}{92}{figure.caption.82}}
\newlabel{fig:Rotation}{{\relax 5.30}{92}{O'Neil steps to BasicField\relax }{figure.caption.82}{}}
\@writefile{lof}{\select@language{magyar} \contentsline {figure}{\numberline {\relax 5.31.}{\ignorespaces O'Neil steps closed door\relax }}{92}{figure.caption.83}}
\newlabel{fig:Rotation}{{\relax 5.31}{92}{O'Neil steps closed door\relax }{figure.caption.83}{}}
\@writefile{lof}{\select@language{magyar} \contentsline {figure}{\numberline {\relax 5.32.}{\ignorespaces O'Neil steps into open door\relax }}{93}{figure.caption.84}}
\newlabel{fig:Rotation}{{\relax 5.32}{93}{O'Neil steps into open door\relax }{figure.caption.84}{}}
\@writefile{lof}{\select@language{magyar} \contentsline {figure}{\numberline {\relax 5.33.}{\ignorespaces O'Neil steps into Stargate\relax }}{93}{figure.caption.85}}
\newlabel{fig:Rotation}{{\relax 5.33}{93}{O'Neil steps into Stargate\relax }{figure.caption.85}{}}
\@writefile{lof}{\select@language{magyar} \contentsline {figure}{\numberline {\relax 5.34.}{\ignorespaces O'Neil steps to Switch\relax }}{94}{figure.caption.86}}
\newlabel{fig:Rotation}{{\relax 5.34}{94}{O'Neil steps to Switch\relax }{figure.caption.86}{}}
\@writefile{lof}{\select@language{magyar} \contentsline {figure}{\numberline {\relax 5.35.}{\ignorespaces O'Neil steps to Wall\relax }}{94}{figure.caption.87}}
\newlabel{fig:Rotation}{{\relax 5.35}{94}{O'Neil steps to Wall\relax }{figure.caption.87}{}}
\@writefile{lof}{\select@language{magyar} \contentsline {figure}{\numberline {\relax 5.36.}{\ignorespaces O'Neil steps to ZPM\relax }}{95}{figure.caption.88}}
\newlabel{fig:Rotation}{{\relax 5.36}{95}{O'Neil steps to ZPM\relax }{figure.caption.88}{}}
\gdef \LT@xxv {\LT@entry 
    {3}{91.6678pt}\LT@entry 
    {3}{74.59596pt}\LT@entry 
    {3}{97.35826pt}\LT@entry 
    {3}{211.16928pt}}
\@writefile{toc}{\select@language{magyar} \contentsline {section}{\numberline {5.5}Napl\IeC {\'o}}{96}{section.5.5}}
\@writefile{toc}{\select@language{magyar} \contentsline {chapter}{\numberline {6}Szkeleton bead\IeC {\'a}s}{97}{chapter.6}}
\@writefile{lof}{\select@language{magyar} \addvspace {10\p@ }}
\@writefile{lot}{\select@language{magyar} \addvspace {10\p@ }}
\@writefile{lol}{\select@language{magyar} \addvspace {10\p@ }}
\@writefile{toc}{\select@language{magyar} \contentsline {section}{\numberline {6.1}Kommunik\IeC {\'a}ci\IeC {\'o}s diagramok}{97}{section.6.1}}
\@writefile{lof}{\select@language{magyar} \contentsline {figure}{\numberline {\relax 6.1.}{\ignorespaces Mapelements init\relax }}{97}{figure.caption.89}}
\newlabel{fig:Oneil steps to EmptyField}{{\relax 6.1}{97}{Mapelements init\relax }{figure.caption.89}{}}
\@writefile{lof}{\select@language{magyar} \contentsline {figure}{\numberline {\relax 6.2.}{\ignorespaces Oneil steps to EmptyField\relax }}{98}{figure.caption.90}}
\newlabel{fig:Oneil steps to EmptyField}{{\relax 6.2}{98}{Oneil steps to EmptyField\relax }{figure.caption.90}{}}
\@writefile{lof}{\select@language{magyar} \contentsline {figure}{\numberline {\relax 6.3.}{\ignorespaces Oneil steps into open Door\relax }}{98}{figure.caption.91}}
\newlabel{fig:Oneil steps into open Door}{{\relax 6.3}{98}{Oneil steps into open Door\relax }{figure.caption.91}{}}
\@writefile{lof}{\select@language{magyar} \contentsline {figure}{\numberline {\relax 6.4.}{\ignorespaces Oneil steps into closed Door\relax }}{99}{figure.caption.92}}
\newlabel{fig:Oneil steps into closed Door}{{\relax 6.4}{99}{Oneil steps into closed Door\relax }{figure.caption.92}{}}
\@writefile{lof}{\select@language{magyar} \contentsline {figure}{\numberline {\relax 6.5.}{\ignorespaces Oneil steps into SpecWall with fully opened Wormhole\relax }}{99}{figure.caption.93}}
\newlabel{fig:Oneil steps into SpecWall with fully opened Wormhole}{{\relax 6.5}{99}{Oneil steps into SpecWall with fully opened Wormhole\relax }{figure.caption.93}{}}
\@writefile{lof}{\select@language{magyar} \contentsline {figure}{\numberline {\relax 6.6.}{\ignorespaces Oneil steps into SpecWall with semi opened Wormhole\relax }}{100}{figure.caption.94}}
\newlabel{fig:Oneil steps into SpecWall with semi opened Wormhole}{{\relax 6.6}{100}{Oneil steps into SpecWall with semi opened Wormhole\relax }{figure.caption.94}{}}
\@writefile{lof}{\select@language{magyar} \contentsline {figure}{\numberline {\relax 6.7.}{\ignorespaces Oneil steps into SpecWall with closed Wormhole\relax }}{100}{figure.caption.95}}
\newlabel{fig:Oneil steps into SpecWall with closed Wormhole}{{\relax 6.7}{100}{Oneil steps into SpecWall with closed Wormhole\relax }{figure.caption.95}{}}
\@writefile{lof}{\select@language{magyar} \contentsline {figure}{\numberline {\relax 6.8.}{\ignorespaces Oneil steps into Pit\relax }}{101}{figure.caption.96}}
\newlabel{fig:Oneil steps into Pit}{{\relax 6.8}{101}{Oneil steps into Pit\relax }{figure.caption.96}{}}
\@writefile{lof}{\select@language{magyar} \contentsline {figure}{\numberline {\relax 6.9.}{\ignorespaces Oneil steps into Wall\relax }}{101}{figure.caption.97}}
\newlabel{fig:Oneil steps into Wall}{{\relax 6.9}{101}{Oneil steps into Wall\relax }{figure.caption.97}{}}
\@writefile{lof}{\select@language{magyar} \contentsline {figure}{\numberline {\relax 6.10.}{\ignorespaces Oneil steps into ZPM\relax }}{102}{figure.caption.98}}
\newlabel{fig:Oneil steps into ZPM}{{\relax 6.10}{102}{Oneil steps into ZPM\relax }{figure.caption.98}{}}
\@writefile{lof}{\select@language{magyar} \contentsline {figure}{\numberline {\relax 6.11.}{\ignorespaces Oneil picks up Box success\relax }}{102}{figure.caption.99}}
\newlabel{fig:Oneil steps into ZPM}{{\relax 6.11}{102}{Oneil picks up Box success\relax }{figure.caption.99}{}}
\@writefile{lof}{\select@language{magyar} \contentsline {figure}{\numberline {\relax 6.12.}{\ignorespaces Oneil picks up Box success, but there isn't any\relax }}{103}{figure.caption.100}}
\newlabel{fig:Oneil steps into ZPM}{{\relax 6.12}{103}{Oneil picks up Box success, but there isn't any\relax }{figure.caption.100}{}}
\@writefile{lof}{\select@language{magyar} \contentsline {figure}{\numberline {\relax 6.13.}{\ignorespaces Oneil picks up Box success, but he already has one\relax }}{103}{figure.caption.101}}
\newlabel{fig:Oneil steps into ZPM}{{\relax 6.13}{103}{Oneil picks up Box success, but he already has one\relax }{figure.caption.101}{}}
\@writefile{lof}{\select@language{magyar} \contentsline {figure}{\numberline {\relax 6.14.}{\ignorespaces Oneil put down Box success\relax }}{104}{figure.caption.102}}
\newlabel{fig:Oneil steps into ZPM}{{\relax 6.14}{104}{Oneil put down Box success\relax }{figure.caption.102}{}}
\@writefile{lof}{\select@language{magyar} \contentsline {figure}{\numberline {\relax 6.15.}{\ignorespaces Oneil put down Box, but on the Field there is already one\relax }}{104}{figure.caption.103}}
\newlabel{fig:Oneil steps into ZPM}{{\relax 6.15}{104}{Oneil put down Box, but on the Field there is already one\relax }{figure.caption.103}{}}
\@writefile{lof}{\select@language{magyar} \contentsline {figure}{\numberline {\relax 6.16.}{\ignorespaces Bullet collide with open Door\relax }}{104}{figure.caption.104}}
\newlabel{fig:Bullet collide with open Door}{{\relax 6.16}{104}{Bullet collide with open Door\relax }{figure.caption.104}{}}
\@writefile{lof}{\select@language{magyar} \contentsline {figure}{\numberline {\relax 6.17.}{\ignorespaces Bullet collide with closed Door\relax }}{105}{figure.caption.105}}
\newlabel{fig:Bullet collide with closed Door}{{\relax 6.17}{105}{Bullet collide with closed Door\relax }{figure.caption.105}{}}
\@writefile{lof}{\select@language{magyar} \contentsline {figure}{\numberline {\relax 6.18.}{\ignorespaces Bullet collide with SpecialWall type I\relax }}{105}{figure.caption.106}}
\newlabel{fig:Bullet collide with SpecialWall type I}{{\relax 6.18}{105}{Bullet collide with SpecialWall type I\relax }{figure.caption.106}{}}
\@writefile{lof}{\select@language{magyar} \contentsline {figure}{\numberline {\relax 6.19.}{\ignorespaces Bullet collide with SpecialWall type II\relax }}{105}{figure.caption.107}}
\newlabel{fig:Bullet collide with SpecialWall type II}{{\relax 6.19}{105}{Bullet collide with SpecialWall type II\relax }{figure.caption.107}{}}
\@writefile{lof}{\select@language{magyar} \contentsline {figure}{\numberline {\relax 6.20.}{\ignorespaces Bullet collide with SpecialWall type III\relax }}{106}{figure.caption.108}}
\newlabel{fig:Bullet collide with SpecialWall type III}{{\relax 6.20}{106}{Bullet collide with SpecialWall type III\relax }{figure.caption.108}{}}
\@writefile{lof}{\select@language{magyar} \contentsline {figure}{\numberline {\relax 6.21.}{\ignorespaces Bullet collide with SpecialWall type IV\relax }}{106}{figure.caption.109}}
\newlabel{fig:Bullet collide with SpecialWall type IV}{{\relax 6.21}{106}{Bullet collide with SpecialWall type IV\relax }{figure.caption.109}{}}
\@writefile{lof}{\select@language{magyar} \contentsline {figure}{\numberline {\relax 6.22.}{\ignorespaces Bullet collide with Wall\relax }}{106}{figure.caption.110}}
\newlabel{fig:Bullet collide with Wall}{{\relax 6.22}{106}{Bullet collide with Wall\relax }{figure.caption.110}{}}
\gdef \LT@xxvi {\LT@entry 
    {3}{125.81102pt}\LT@entry 
    {3}{68.9055pt}\LT@entry 
    {3}{97.35826pt}\LT@entry 
    {3}{182.71652pt}}
\@writefile{toc}{\select@language{magyar} \contentsline {section}{\numberline {6.2}Ford\IeC {\'\i }t\IeC {\'a}si \IeC {\'e}s futtat\IeC {\'a}si \IeC {\'u}tmutat\IeC {\'o}}{107}{section.6.2}}
\@writefile{toc}{\select@language{magyar} \contentsline {subsection}{\numberline {6.2.1}F\IeC {\'a}jllista}{107}{subsection.6.2.1}}
\@writefile{toc}{\select@language{magyar} \contentsline {subsection}{\numberline {6.2.2}Ford\IeC {\'\i }t\IeC {\'a}s}{108}{subsection.6.2.2}}
\newlabel{ssec:forditas}{{6.2.2}{108}{Fordítás}{subsection.6.2.2}{}}
\@writefile{toc}{\select@language{magyar} \contentsline {subsection}{\numberline {6.2.3}Futtat\IeC {\'a}s}{108}{subsection.6.2.3}}
\gdef \LT@xxvii {\LT@entry 
    {3}{182.71652pt}\LT@entry 
    {1}{105.39151pt}\LT@entry 
    {3}{182.71652pt}}
\gdef \LT@xxviii {\LT@entry 
    {3}{91.6678pt}\LT@entry 
    {3}{74.59596pt}\LT@entry 
    {3}{97.35826pt}\LT@entry 
    {3}{211.16928pt}}
\@writefile{toc}{\select@language{magyar} \contentsline {section}{\numberline {6.3}\IeC {\'E}rt\IeC {\'e}kel\IeC {\'e}s}{109}{section.6.3}}
\@writefile{toc}{\select@language{magyar} \contentsline {section}{\numberline {6.4}Napl\IeC {\'o}}{109}{section.6.4}}
\@writefile{toc}{\select@language{magyar} \contentsline {chapter}{\numberline {7}Protot\IeC {\'\i }pus koncepci\IeC {\'o}ja}{110}{chapter.7}}
\@writefile{lof}{\select@language{magyar} \addvspace {10\p@ }}
\@writefile{lot}{\select@language{magyar} \addvspace {10\p@ }}
\@writefile{lol}{\select@language{magyar} \addvspace {10\p@ }}
\@writefile{toc}{\select@language{magyar} \contentsline {section}{\numberline {7.1}V\IeC {\'a}ltoz\IeC {\'a}sok a specifik\IeC {\'a}ci\IeC {\'o}ban}{110}{section.7.1}}
\@writefile{toc}{\select@language{magyar} \contentsline {subsection}{\numberline {7.1.1}Megv\IeC {\'a}ltozott oszt\IeC {\'a}lydiagram}{110}{subsection.7.1.1}}
\@writefile{lof}{\select@language{magyar} \contentsline {figure}{\numberline {\relax 7.1.}{\ignorespaces Oszt\IeC {\'a}lydiagram\relax }}{110}{figure.caption.111}}
\newlabel{fig:ProtoClassDiag}{{\relax 7.1}{110}{Osztálydiagram\relax }{figure.caption.111}{}}
\@writefile{toc}{\select@language{magyar} \contentsline {subsection}{\numberline {7.1.2}Megv\IeC {\'a}ltozott \IeC {\'e}s \IeC {\'u}j szekvenciadiagramok}{111}{subsection.7.1.2}}
\@writefile{lof}{\select@language{magyar} \contentsline {figure}{\numberline {\relax 7.2.}{\ignorespaces Switch and Movable\relax }}{111}{figure.caption.112}}
\newlabel{fig:ProtoClassDiag}{{\relax 7.2}{111}{Switch and Movable\relax }{figure.caption.112}{}}
\@writefile{lof}{\select@language{magyar} \contentsline {figure}{\numberline {\relax 7.3.}{\ignorespaces ZPM and Soldier\relax }}{111}{figure.caption.113}}
\newlabel{fig:ProtoClassDiag}{{\relax 7.3}{111}{ZPM and Soldier\relax }{figure.caption.113}{}}
\@writefile{lof}{\select@language{magyar} \contentsline {figure}{\numberline {\relax 7.4.}{\ignorespaces Leave Switch\relax }}{112}{figure.caption.114}}
\newlabel{fig:ProtoClassDiag}{{\relax 7.4}{112}{Leave Switch\relax }{figure.caption.114}{}}
\@writefile{lof}{\select@language{magyar} \contentsline {figure}{\numberline {\relax 7.5.}{\ignorespaces Box placement\relax }}{112}{figure.caption.115}}
\newlabel{fig:ProtoClassDiag}{{\relax 7.5}{112}{Box placement\relax }{figure.caption.115}{}}
\@writefile{lof}{\select@language{magyar} \contentsline {figure}{\numberline {\relax 7.6.}{\ignorespaces Replicator and Bullet\relax }}{112}{figure.caption.116}}
\newlabel{fig:ProtoClassDiag}{{\relax 7.6}{112}{Replicator and Bullet\relax }{figure.caption.116}{}}
\@writefile{lof}{\select@language{magyar} \contentsline {figure}{\numberline {\relax 7.7.}{\ignorespaces Replicator and Pit\relax }}{113}{figure.caption.117}}
\newlabel{fig:ProtoClassDiag}{{\relax 7.7}{113}{Replicator and Pit\relax }{figure.caption.117}{}}
\@writefile{toc}{\select@language{magyar} \contentsline {section}{\numberline {7.2}Protot\IeC {\'\i }pus interface-defin\IeC {\'\i }ci\IeC {\'o}ja}{114}{section.7.2}}
\@writefile{toc}{\select@language{magyar} \contentsline {subsection}{\numberline {7.2.1}Az interf\IeC {\'e}sz \IeC {\'a}ltal\IeC {\'a}nos le\IeC {\'\i }r\IeC {\'a}sa}{114}{subsection.7.2.1}}
\@writefile{toc}{\select@language{magyar} \contentsline {subsection}{\numberline {7.2.2}Bemeneti nyelv}{114}{subsection.7.2.2}}
\gdef \LT@xxix {\LT@entry 
    {1}{75.8816pt}\LT@entry 
    {1}{296.52756pt}}
\gdef \LT@xxx {\LT@entry 
    {1}{75.8816pt}\LT@entry 
    {1}{296.52756pt}}
\@writefile{toc}{\select@language{magyar} \contentsline {section}{\numberline {7.3}\IeC {\"O}sszes r\IeC {\'e}szletes use-case}{118}{section.7.3}}
\@writefile{lof}{\select@language{magyar} \contentsline {figure}{\numberline {\relax 7.8.}{\ignorespaces Use-Casese\relax }}{118}{figure.caption.118}}
\newlabel{fig:Use-Casese}{{\relax 7.8}{118}{Use-Casese\relax }{figure.caption.118}{}}
\gdef \LT@xxxi {\LT@entry 
    {1}{75.8816pt}\LT@entry 
    {1}{296.52756pt}}
\gdef \LT@xxxii {\LT@entry 
    {1}{75.8816pt}\LT@entry 
    {1}{296.52756pt}}
\gdef \LT@xxxiii {\LT@entry 
    {1}{75.8816pt}\LT@entry 
    {1}{296.52756pt}}
\gdef \LT@xxxiv {\LT@entry 
    {1}{75.8816pt}\LT@entry 
    {1}{296.52756pt}}
\gdef \LT@xxxv {\LT@entry 
    {1}{75.8816pt}\LT@entry 
    {1}{296.52756pt}}
\gdef \LT@xxxvi {\LT@entry 
    {1}{75.8816pt}\LT@entry 
    {1}{296.52756pt}}
\gdef \LT@xxxvii {\LT@entry 
    {1}{80.95132pt}\LT@entry 
    {1}{296.52756pt}}
\gdef \LT@xxxviii {\LT@entry 
    {1}{80.95132pt}\LT@entry 
    {1}{296.52756pt}}
\gdef \LT@xxxix {\LT@entry 
    {1}{80.95132pt}\LT@entry 
    {1}{296.52756pt}}
\gdef \LT@xl {\LT@entry 
    {1}{80.95132pt}\LT@entry 
    {1}{296.52756pt}}
\gdef \LT@xli {\LT@entry 
    {1}{80.95132pt}\LT@entry 
    {1}{296.52756pt}}
\gdef \LT@xlii {\LT@entry 
    {1}{80.95132pt}\LT@entry 
    {1}{296.52756pt}}
\gdef \LT@xliii {\LT@entry 
    {1}{80.95132pt}\LT@entry 
    {1}{296.52756pt}}
\gdef \LT@xliv {\LT@entry 
    {1}{80.95132pt}\LT@entry 
    {1}{296.52756pt}}
\@writefile{toc}{\select@language{magyar} \contentsline {section}{\numberline {7.4}Tesztel\IeC {\'e}si terv}{120}{section.7.4}}
\gdef \LT@xlv {\LT@entry 
    {1}{80.95132pt}\LT@entry 
    {1}{296.52756pt}}
\gdef \LT@xlvi {\LT@entry 
    {1}{80.95132pt}\LT@entry 
    {1}{296.52756pt}}
\gdef \LT@xlvii {\LT@entry 
    {1}{80.95132pt}\LT@entry 
    {1}{296.52756pt}}
\gdef \LT@xlviii {\LT@entry 
    {1}{80.95132pt}\LT@entry 
    {1}{296.52756pt}}
\gdef \LT@xlix {\LT@entry 
    {1}{80.95132pt}\LT@entry 
    {1}{296.52756pt}}
\gdef \LT@l {\LT@entry 
    {1}{80.95132pt}\LT@entry 
    {1}{296.52756pt}}
\gdef \LT@li {\LT@entry 
    {1}{80.95132pt}\LT@entry 
    {1}{296.52756pt}}
\gdef \LT@lii {\LT@entry 
    {1}{80.95132pt}\LT@entry 
    {1}{296.52756pt}}
\gdef \LT@liii {\LT@entry 
    {1}{80.95132pt}\LT@entry 
    {1}{296.52756pt}}
\gdef \LT@liv {\LT@entry 
    {1}{80.95132pt}\LT@entry 
    {1}{296.52756pt}}
\gdef \LT@lv {\LT@entry 
    {1}{80.95132pt}\LT@entry 
    {1}{296.52756pt}}
\gdef \LT@lvi {\LT@entry 
    {1}{80.95132pt}\LT@entry 
    {1}{296.52756pt}}
\gdef \LT@lvii {\LT@entry 
    {1}{80.95132pt}\LT@entry 
    {1}{296.52756pt}}
\gdef \LT@lviii {\LT@entry 
    {1}{80.95132pt}\LT@entry 
    {1}{296.52756pt}}
\gdef \LT@lix {\LT@entry 
    {1}{80.95132pt}\LT@entry 
    {1}{296.52756pt}}
\gdef \LT@lx {\LT@entry 
    {1}{80.95132pt}\LT@entry 
    {1}{296.52756pt}}
\gdef \LT@lxi {\LT@entry 
    {1}{80.95132pt}\LT@entry 
    {1}{296.52756pt}}
\gdef \LT@lxii {\LT@entry 
    {1}{80.95132pt}\LT@entry 
    {1}{296.52756pt}}
\gdef \LT@lxiii {\LT@entry 
    {1}{80.95132pt}\LT@entry 
    {1}{296.52756pt}}
\gdef \LT@lxiv {\LT@entry 
    {1}{80.95132pt}\LT@entry 
    {1}{296.52756pt}}
\gdef \LT@lxv {\LT@entry 
    {1}{80.95132pt}\LT@entry 
    {1}{296.52756pt}}
\gdef \LT@lxvi {\LT@entry 
    {1}{80.95132pt}\LT@entry 
    {1}{296.52756pt}}
\gdef \LT@lxvii {\LT@entry 
    {1}{80.95132pt}\LT@entry 
    {1}{296.52756pt}}
\gdef \LT@lxviii {\LT@entry 
    {1}{80.95132pt}\LT@entry 
    {1}{296.52756pt}}
\gdef \LT@lxix {\LT@entry 
    {1}{80.95132pt}\LT@entry 
    {1}{296.52756pt}}
\gdef \LT@lxx {\LT@entry 
    {1}{80.95132pt}\LT@entry 
    {1}{296.52756pt}}
\gdef \LT@lxxi {\LT@entry 
    {1}{80.95132pt}\LT@entry 
    {1}{296.52756pt}}
\gdef \LT@lxxii {\LT@entry 
    {1}{80.95132pt}\LT@entry 
    {1}{296.52756pt}}
\gdef \LT@lxxiii {\LT@entry 
    {1}{80.95132pt}\LT@entry 
    {1}{296.52756pt}}
\gdef \LT@lxxiv {\LT@entry 
    {1}{80.95132pt}\LT@entry 
    {1}{296.52756pt}}
\gdef \LT@lxxv {\LT@entry 
    {1}{80.95132pt}\LT@entry 
    {1}{296.52756pt}}
\gdef \LT@lxxvi {\LT@entry 
    {3}{91.6678pt}\LT@entry 
    {3}{74.59596pt}\LT@entry 
    {3}{97.35826pt}\LT@entry 
    {3}{211.16928pt}}
\@writefile{toc}{\select@language{magyar} \contentsline {section}{\numberline {7.5}Tesztel\IeC {\'e}st t\IeC {\'a}mogat\IeC {\'o} seg\IeC {\'e}d- \IeC {\'e}s ford\IeC {\'\i }t\IeC {\'o}programok specifik\IeC {\'a}l\IeC {\'a}sa}{124}{section.7.5}}
\@writefile{toc}{\select@language{magyar} \contentsline {section}{\numberline {7.6}Napl\IeC {\'o}}{124}{section.7.6}}
\@writefile{toc}{\select@language{magyar} \contentsline {chapter}{\numberline {8}R\IeC {\'e}szletes tervek}{126}{chapter.8}}
\@writefile{lof}{\select@language{magyar} \addvspace {10\p@ }}
\@writefile{lot}{\select@language{magyar} \addvspace {10\p@ }}
\@writefile{lol}{\select@language{magyar} \addvspace {10\p@ }}
\@writefile{toc}{\select@language{magyar} \contentsline {section}{\numberline {8.1}Oszt\IeC {\'a}lyok \IeC {\'e}s met\IeC {\'o}dusok tervei}{126}{section.8.1}}
\@writefile{toc}{\select@language{magyar} \contentsline {subsection}{\numberline {8.1.1}BasicField}{126}{subsection.8.1.1}}
\@writefile{toc}{\select@language{magyar} \contentsline {subsection}{\numberline {8.1.2}Door}{126}{subsection.8.1.2}}
\@writefile{toc}{\select@language{magyar} \contentsline {subsection}{\numberline {8.1.3}FieldElement}{127}{subsection.8.1.3}}
\@writefile{toc}{\select@language{magyar} \contentsline {subsection}{\numberline {8.1.4}Pit}{127}{subsection.8.1.4}}
\@writefile{toc}{\select@language{magyar} \contentsline {subsection}{\numberline {8.1.5}Switch}{128}{subsection.8.1.5}}
\@writefile{toc}{\select@language{magyar} \contentsline {subsection}{\numberline {8.1.6}Wall}{128}{subsection.8.1.6}}
\@writefile{toc}{\select@language{magyar} \contentsline {subsection}{\numberline {8.1.7}ZPM}{129}{subsection.8.1.7}}
\@writefile{toc}{\select@language{magyar} \contentsline {subsection}{\numberline {8.1.8}Game}{129}{subsection.8.1.8}}
\@writefile{toc}{\select@language{magyar} \contentsline {subsection}{\numberline {8.1.9}Movable}{129}{subsection.8.1.9}}
\@writefile{toc}{\select@language{magyar} \contentsline {subsection}{\numberline {8.1.10}SelfMovable}{130}{subsection.8.1.10}}
\@writefile{toc}{\select@language{magyar} \contentsline {subsection}{\numberline {8.1.11}Box}{131}{subsection.8.1.11}}
\@writefile{toc}{\select@language{magyar} \contentsline {subsection}{\numberline {8.1.12}Soldier}{131}{subsection.8.1.12}}
\@writefile{toc}{\select@language{magyar} \contentsline {subsection}{\numberline {8.1.13}Bullet}{132}{subsection.8.1.13}}
\@writefile{toc}{\select@language{magyar} \contentsline {subsection}{\numberline {8.1.14}Replicator}{133}{subsection.8.1.14}}
\@writefile{toc}{\select@language{magyar} \contentsline {subsection}{\numberline {8.1.15}SpecialWall}{133}{subsection.8.1.15}}
\@writefile{toc}{\select@language{magyar} \contentsline {subsection}{\numberline {8.1.16}Stargate}{134}{subsection.8.1.16}}
\@writefile{toc}{\select@language{magyar} \contentsline {subsection}{\numberline {8.1.17}Wormhole}{134}{subsection.8.1.17}}
\@writefile{toc}{\select@language{magyar} \contentsline {section}{\numberline {8.2}A tesztek r\IeC {\'e}szletes tervei, le\IeC {\'\i }r\IeC {\'a}suk a teszt nyelv\IeC {\'e}n}{136}{section.8.2}}
\@writefile{toc}{\select@language{magyar} \contentsline {subsection}{\numberline {8.2.1}Bullet meet Replicator (or Replicator meet Bullet)}{136}{subsection.8.2.1}}
\@writefile{toc}{\select@language{magyar} \contentsline {subsection}{\numberline {8.2.2}Bullet meet Wall}{136}{subsection.8.2.2}}
\@writefile{toc}{\select@language{magyar} \contentsline {subsection}{\numberline {8.2.3}Oneill picks up Box, then tries to pick up an other (2 in 1)}{137}{subsection.8.2.3}}
\@writefile{toc}{\select@language{magyar} \contentsline {subsection}{\numberline {8.2.4}Oneill puts down Box}{138}{subsection.8.2.4}}
\@writefile{toc}{\select@language{magyar} \contentsline {subsection}{\numberline {8.2.5}Oneill tries to put down box, although he doesn't have one}{138}{subsection.8.2.5}}
\@writefile{toc}{\select@language{magyar} \contentsline {subsection}{\numberline {8.2.6}Oneill picks up ZPM (and the ZPM disapper after pickup)}{139}{subsection.8.2.6}}
\@writefile{toc}{\select@language{magyar} \contentsline {subsection}{\numberline {8.2.7}Oneill shoots blue (new:) and creates blue stargate}{140}{subsection.8.2.7}}
\@writefile{toc}{\select@language{magyar} \contentsline {subsection}{\numberline {8.2.8}Oneill shoots yellow (new:) and creates yellow stargate}{140}{subsection.8.2.8}}
\@writefile{toc}{\select@language{magyar} \contentsline {subsection}{\numberline {8.2.9}Oneill creates Wormhole}{141}{subsection.8.2.9}}
\@writefile{toc}{\select@language{magyar} \contentsline {subsection}{\numberline {8.2.10}Oneill hasn't got enough wieght, but with box OK}{141}{subsection.8.2.10}}
\@writefile{toc}{\select@language{magyar} \contentsline {subsection}{\numberline {8.2.11}Replicator and Pit}{142}{subsection.8.2.11}}
\@writefile{toc}{\select@language{magyar} \contentsline {subsection}{\numberline {8.2.12}ZPM appear after 2 fetched}{143}{subsection.8.2.12}}
\@writefile{toc}{\select@language{magyar} \contentsline {subsection}{\numberline {8.2.13}O\IeC {\textquoteright }Neill and Jaffa\IeC {\textquoteright }s wormhole}{144}{subsection.8.2.13}}
\@writefile{toc}{\select@language{magyar} \contentsline {subsection}{\numberline {8.2.14}O\IeC {\textquoteright }Neill and Replicator}{144}{subsection.8.2.14}}
\@writefile{toc}{\select@language{magyar} \contentsline {subsection}{\numberline {8.2.15}O\IeC {\textquoteright }Neill and Stargate without Wormhole}{145}{subsection.8.2.15}}
\@writefile{toc}{\select@language{magyar} \contentsline {subsection}{\numberline {8.2.16}O\IeC {\textquoteright }Neill and Wall}{145}{subsection.8.2.16}}
\@writefile{toc}{\select@language{magyar} \contentsline {subsection}{\numberline {8.2.17}O\IeC {\textquoteright }Neill and closed Door}{146}{subsection.8.2.17}}
\@writefile{toc}{\select@language{magyar} \contentsline {subsection}{\numberline {8.2.18}O\IeC {\textquoteright }Neill steps}{146}{subsection.8.2.18}}
\@writefile{toc}{\select@language{magyar} \contentsline {subsection}{\numberline {8.2.19}O\IeC {\textquoteright }Neill and his Wormhole}{147}{subsection.8.2.19}}
\@writefile{toc}{\select@language{magyar} \contentsline {subsection}{\numberline {8.2.20}O\IeC {\textquoteright }Neill and open door}{148}{subsection.8.2.20}}
\@writefile{toc}{\select@language{magyar} \contentsline {subsection}{\numberline {8.2.21}O\IeC {\textquoteright }Neill and specWall without Stargate}{148}{subsection.8.2.21}}
\@writefile{toc}{\select@language{magyar} \contentsline {subsection}{\numberline {8.2.22}O\IeC {\textquoteright }Neill steps into Pit}{149}{subsection.8.2.22}}
\@writefile{toc}{\select@language{magyar} \contentsline {subsection}{\numberline {8.2.23}O\IeC {\textquoteright }Neill steps on Switch}{149}{subsection.8.2.23}}
\@writefile{toc}{\select@language{magyar} \contentsline {subsection}{\numberline {8.2.24}Delete everything in Pit}{150}{subsection.8.2.24}}
\@writefile{toc}{\select@language{magyar} \contentsline {subsection}{\numberline {8.2.25}Replikator and Box}{150}{subsection.8.2.25}}
\@writefile{toc}{\select@language{magyar} \contentsline {subsection}{\numberline {8.2.26}Replikator steps on Switch}{151}{subsection.8.2.26}}
\@writefile{toc}{\select@language{magyar} \contentsline {subsection}{\numberline {8.2.27}Replikator and ZPM}{152}{subsection.8.2.27}}
\@writefile{toc}{\select@language{magyar} \contentsline {subsection}{\numberline {8.2.28}Bullet and open stargate}{152}{subsection.8.2.28}}
\gdef \LT@lxxvii {\LT@entry 
    {3}{91.6678pt}\LT@entry 
    {3}{74.59596pt}\LT@entry 
    {3}{97.35826pt}\LT@entry 
    {3}{211.16928pt}}
\@writefile{toc}{\select@language{magyar} \contentsline {section}{\numberline {8.3}A tesztel\IeC {\'e}st t\IeC {\'a}mogat\IeC {\'o} programok tervei}{153}{section.8.3}}
\@writefile{toc}{\select@language{magyar} \contentsline {section}{\numberline {8.4}Napl\IeC {\'o}}{153}{section.8.4}}
\gdef \LT@lxxviii {\LT@entry 
    {3}{125.81102pt}\LT@entry 
    {3}{68.9055pt}\LT@entry 
    {3}{97.35826pt}\LT@entry 
    {3}{182.71652pt}}
\@writefile{toc}{\select@language{magyar} \contentsline {chapter}{\numberline {10}Protot\IeC {\'\i }pus bead\IeC {\'a}sa}{154}{chapter.10}}
\@writefile{lof}{\select@language{magyar} \addvspace {10\p@ }}
\@writefile{lot}{\select@language{magyar} \addvspace {10\p@ }}
\@writefile{lol}{\select@language{magyar} \addvspace {10\p@ }}
\@writefile{toc}{\select@language{magyar} \contentsline {section}{\numberline {10.1}Ford\IeC {\'\i }t\IeC {\'a}si \IeC {\'e}s futtat\IeC {\'a}si \IeC {\'u}tmutat\IeC {\'o}}{154}{section.10.1}}
\@writefile{toc}{\select@language{magyar} \contentsline {subsection}{\numberline {10.1.1}F\IeC {\'a}jllista}{154}{subsection.10.1.1}}
\@writefile{toc}{\select@language{magyar} \contentsline {subsection}{\numberline {10.1.2}Ford\IeC {\'\i }t\IeC {\'a}s}{154}{subsection.10.1.2}}
\newlabel{ssec:forditas}{{10.1.2}{154}{Fordítás}{subsection.10.1.2}{}}
\@writefile{toc}{\select@language{magyar} \contentsline {subsection}{\numberline {10.1.3}Futtat\IeC {\'a}s}{155}{subsection.10.1.3}}
\gdef \LT@lxxix {\LT@entry 
    {1}{79.057pt}\LT@entry 
    {1}{296.52756pt}}
\gdef \LT@lxxx {\LT@entry 
    {1}{79.057pt}\LT@entry 
    {1}{296.52756pt}}
\gdef \LT@lxxxi {\LT@entry 
    {1}{93.19334pt}\LT@entry 
    {1}{296.52756pt}}
\gdef \LT@lxxxii {\LT@entry 
    {1}{93.19334pt}\LT@entry 
    {1}{296.52756pt}}
\gdef \LT@lxxxiii {\LT@entry 
    {1}{79.057pt}\LT@entry 
    {1}{296.52756pt}}
\gdef \LT@lxxxiv {\LT@entry 
    {1}{79.057pt}\LT@entry 
    {1}{296.52756pt}}
\gdef \LT@lxxxv {\LT@entry 
    {1}{79.057pt}\LT@entry 
    {1}{296.52756pt}}
\gdef \LT@lxxxvi {\LT@entry 
    {1}{79.057pt}\LT@entry 
    {1}{296.52756pt}}
\@writefile{toc}{\select@language{magyar} \contentsline {section}{\numberline {10.2}Tesztek jegyz\IeC {\H o}k\IeC {\"o}nyvei}{156}{section.10.2}}
\@writefile{toc}{\select@language{magyar} \contentsline {subsection}{\numberline {10.2.1}ONeill and SpecialWall without Stargate}{156}{subsection.10.2.1}}
\@writefile{toc}{\select@language{magyar} \contentsline {subsection}{\numberline {10.2.2}ONaill and Stargate without Wormhole}{156}{subsection.10.2.2}}
\@writefile{toc}{\select@language{magyar} \contentsline {subsection}{\numberline {10.2.3}ONeill and Wall}{156}{subsection.10.2.3}}
\@writefile{toc}{\select@language{magyar} \contentsline {subsection}{\numberline {10.2.4}ONeill hasn't got enough weight but with box ok}{156}{subsection.10.2.4}}
\@writefile{toc}{\select@language{magyar} \contentsline {subsection}{\numberline {10.2.5}ONeill picks up Box then tries to pick up another}{156}{subsection.10.2.5}}
\@writefile{toc}{\select@language{magyar} \contentsline {subsection}{\numberline {10.2.6}ONeill picks up a ZPM}{156}{subsection.10.2.6}}
\gdef \LT@lxxxvii {\LT@entry 
    {1}{93.19334pt}\LT@entry 
    {1}{296.52756pt}}
\gdef \LT@lxxxviii {\LT@entry 
    {1}{79.057pt}\LT@entry 
    {1}{296.52756pt}}
\gdef \LT@lxxxix {\LT@entry 
    {1}{79.057pt}\LT@entry 
    {1}{296.52756pt}}
\gdef \LT@xc {\LT@entry 
    {1}{79.057pt}\LT@entry 
    {1}{296.52756pt}}
\gdef \LT@xci {\LT@entry 
    {1}{93.19334pt}\LT@entry 
    {1}{296.52756pt}}
\gdef \LT@xcii {\LT@entry 
    {1}{93.19334pt}\LT@entry 
    {1}{296.52756pt}}
\gdef \LT@xciii {\LT@entry 
    {1}{93.19334pt}\LT@entry 
    {1}{296.52756pt}}
\@writefile{toc}{\select@language{magyar} \contentsline {subsection}{\numberline {10.2.7}ONeill puts down a Box}{157}{subsection.10.2.7}}
\@writefile{toc}{\select@language{magyar} \contentsline {subsection}{\numberline {10.2.8}ONeill shoots blue and open a blue Stargate}{157}{subsection.10.2.8}}
\@writefile{toc}{\select@language{magyar} \contentsline {subsection}{\numberline {10.2.9}ONeill creates Wormhole}{157}{subsection.10.2.9}}
\@writefile{toc}{\select@language{magyar} \contentsline {subsection}{\numberline {10.2.10}Oneill shoots yellow and creates yellow stargate}{157}{subsection.10.2.10}}
\gdef \LT@xciv {\LT@entry 
    {1}{93.19334pt}\LT@entry 
    {1}{296.52756pt}}
\gdef \LT@xcv {\LT@entry 
    {1}{79.057pt}\LT@entry 
    {1}{296.52756pt}}
\gdef \LT@xcvi {\LT@entry 
    {1}{79.057pt}\LT@entry 
    {1}{296.52756pt}}
\gdef \LT@xcvii {\LT@entry 
    {1}{93.19334pt}\LT@entry 
    {1}{296.52756pt}}
\gdef \LT@xcviii {\LT@entry 
    {1}{79.057pt}\LT@entry 
    {1}{296.52756pt}}
\gdef \LT@xcix {\LT@entry 
    {1}{93.19334pt}\LT@entry 
    {1}{296.52756pt}}
\gdef \LT@c {\LT@entry 
    {1}{93.19334pt}\LT@entry 
    {1}{296.52756pt}}
\gdef \LT@ci {\LT@entry 
    {1}{79.057pt}\LT@entry 
    {1}{296.52756pt}}
\@writefile{toc}{\select@language{magyar} \contentsline {subsection}{\numberline {10.2.11}Oneill steps}{158}{subsection.10.2.11}}
\@writefile{toc}{\select@language{magyar} \contentsline {subsection}{\numberline {10.2.12}Oneill steps into Pit}{158}{subsection.10.2.12}}
\@writefile{toc}{\select@language{magyar} \contentsline {subsection}{\numberline {10.2.13}Oneill steps on Swtich}{158}{subsection.10.2.13}}
\gdef \LT@cii {\LT@entry 
    {1}{93.19334pt}\LT@entry 
    {1}{296.52756pt}}
\gdef \LT@ciii {\LT@entry 
    {1}{79.057pt}\LT@entry 
    {1}{296.52756pt}}
\gdef \LT@civ {\LT@entry 
    {1}{79.057pt}\LT@entry 
    {1}{296.52756pt}}
\gdef \LT@cv {\LT@entry 
    {1}{93.19334pt}\LT@entry 
    {1}{296.52756pt}}
\gdef \LT@cvi {\LT@entry 
    {1}{79.057pt}\LT@entry 
    {1}{296.52756pt}}
\gdef \LT@cvii {\LT@entry 
    {1}{93.19334pt}\LT@entry 
    {1}{296.52756pt}}
\gdef \LT@cviii {\LT@entry 
    {1}{79.057pt}\LT@entry 
    {1}{296.52756pt}}
\gdef \LT@cix {\LT@entry 
    {1}{79.057pt}\LT@entry 
    {1}{296.52756pt}}
\@writefile{toc}{\select@language{magyar} \contentsline {subsection}{\numberline {10.2.14}Oneill tries to put down box although he doesn't have one}{159}{subsection.10.2.14}}
\@writefile{toc}{\select@language{magyar} \contentsline {subsection}{\numberline {10.2.15}Replicator and Box}{159}{subsection.10.2.15}}
\@writefile{toc}{\select@language{magyar} \contentsline {subsection}{\numberline {10.2.16}Replicator and Pit}{159}{subsection.10.2.16}}
\@writefile{toc}{\select@language{magyar} \contentsline {subsection}{\numberline {10.2.17}Replicator and ZPM}{159}{subsection.10.2.17}}
\@writefile{toc}{\select@language{magyar} \contentsline {subsection}{\numberline {10.2.18}Replicator steps on Switch}{159}{subsection.10.2.18}}
\@writefile{toc}{\select@language{magyar} \contentsline {subsection}{\numberline {10.2.19}ZPM appear after 2 fetched}{159}{subsection.10.2.19}}
\gdef \LT@cx {\LT@entry 
    {1}{93.19334pt}\LT@entry 
    {1}{296.52756pt}}
\gdef \LT@cxi {\LT@entry 
    {1}{93.19334pt}\LT@entry 
    {1}{296.52756pt}}
\gdef \LT@cxii {\LT@entry 
    {1}{79.057pt}\LT@entry 
    {1}{296.52756pt}}
\gdef \LT@cxiii {\LT@entry 
    {1}{79.057pt}\LT@entry 
    {1}{296.52756pt}}
\gdef \LT@cxiv {\LT@entry 
    {1}{93.19334pt}\LT@entry 
    {1}{296.52756pt}}
\gdef \LT@cxv {\LT@entry 
    {1}{79.057pt}\LT@entry 
    {1}{296.52756pt}}
\gdef \LT@cxvi {\LT@entry 
    {1}{93.19334pt}\LT@entry 
    {1}{296.52756pt}}
\gdef \LT@cxvii {\LT@entry 
    {1}{79.057pt}\LT@entry 
    {1}{296.52756pt}}
\gdef \LT@cxviii {\LT@entry 
    {1}{93.19334pt}\LT@entry 
    {1}{296.52756pt}}
\@writefile{toc}{\select@language{magyar} \contentsline {subsection}{\numberline {10.2.20}Bullet and open stargate}{160}{subsection.10.2.20}}
\@writefile{toc}{\select@language{magyar} \contentsline {subsection}{\numberline {10.2.21}Bullet meets Replicator}{160}{subsection.10.2.21}}
\@writefile{toc}{\select@language{magyar} \contentsline {subsection}{\numberline {10.2.22}Bullet meets Wall}{160}{subsection.10.2.22}}
\gdef \LT@cxix {\LT@entry 
    {1}{79.057pt}\LT@entry 
    {1}{296.52756pt}}
\gdef \LT@cxx {\LT@entry 
    {1}{79.057pt}\LT@entry 
    {1}{296.52756pt}}
\gdef \LT@cxxi {\LT@entry 
    {1}{79.057pt}\LT@entry 
    {1}{296.52756pt}}
\gdef \LT@cxxii {\LT@entry 
    {1}{93.19334pt}\LT@entry 
    {1}{296.52756pt}}
\gdef \LT@cxxiii {\LT@entry 
    {1}{79.057pt}\LT@entry 
    {1}{296.52756pt}}
\gdef \LT@cxxiv {\LT@entry 
    {1}{93.19334pt}\LT@entry 
    {1}{296.52756pt}}
\gdef \LT@cxxv {\LT@entry 
    {1}{79.057pt}\LT@entry 
    {1}{296.52756pt}}
\gdef \LT@cxxvi {\LT@entry 
    {1}{93.19334pt}\LT@entry 
    {1}{296.52756pt}}
\@writefile{toc}{\select@language{magyar} \contentsline {subsection}{\numberline {10.2.23}Delete everything in pit}{161}{subsection.10.2.23}}
\@writefile{toc}{\select@language{magyar} \contentsline {subsection}{\numberline {10.2.24}ONeill and closed Door}{161}{subsection.10.2.24}}
\@writefile{toc}{\select@language{magyar} \contentsline {subsection}{\numberline {10.2.25}ONeill and Wormhole}{161}{subsection.10.2.25}}
\@writefile{toc}{\select@language{magyar} \contentsline {subsection}{\numberline {10.2.26}ONeill and Jaffas Wormhole}{161}{subsection.10.2.26}}
\@writefile{toc}{\select@language{magyar} \contentsline {subsection}{\numberline {10.2.27}ONeill and open Door}{161}{subsection.10.2.27}}
\gdef \LT@cxxvii {\LT@entry 
    {1}{79.057pt}\LT@entry 
    {1}{296.52756pt}}
\@writefile{toc}{\select@language{magyar} \contentsline {subsection}{\numberline {10.2.28}ONeill and Replicator}{162}{subsection.10.2.28}}
\gdef \LT@cxxviii {\LT@entry 
    {3}{182.71652pt}\LT@entry 
    {1}{105.39151pt}\LT@entry 
    {3}{182.71652pt}}
\gdef \LT@cxxix {\LT@entry 
    {3}{91.6678pt}\LT@entry 
    {3}{74.59596pt}\LT@entry 
    {3}{97.35826pt}\LT@entry 
    {3}{211.16928pt}}
\@writefile{toc}{\select@language{magyar} \contentsline {section}{\numberline {10.3}\IeC {\'E}rt\IeC {\'e}kel\IeC {\'e}s}{163}{section.10.3}}
\@writefile{toc}{\select@language{magyar} \contentsline {section}{\numberline {10.4}Napl\IeC {\'o}}{163}{section.10.4}}
\@writefile{toc}{\select@language{magyar} \contentsline {chapter}{\numberline {11}Grafikus fel\IeC {\"u}let specifik\IeC {\'a}ci\IeC {\'o}ja}{164}{chapter.11}}
\@writefile{lof}{\select@language{magyar} \addvspace {10\p@ }}
\@writefile{lot}{\select@language{magyar} \addvspace {10\p@ }}
\@writefile{lol}{\select@language{magyar} \addvspace {10\p@ }}
\@writefile{toc}{\select@language{magyar} \contentsline {section}{\numberline {11.1}A grafikus interf\IeC {\'e}sz}{164}{section.11.1}}
\newlabel{fig:subim1}{{\relax 11.1a}{164}{ONeill South\relax }{figure.caption.119}{}}
\newlabel{sub@fig:subim1}{{a}{164}{ONeill South\relax }{figure.caption.119}{}}
\newlabel{fig:subim2}{{\relax 11.1b}{164}{ONeill North\relax }{figure.caption.119}{}}
\newlabel{sub@fig:subim2}{{b}{164}{ONeill North\relax }{figure.caption.119}{}}
\newlabel{fig:subim2}{{\relax 11.1c}{164}{ONeill East\relax }{figure.caption.119}{}}
\newlabel{sub@fig:subim2}{{c}{164}{ONeill East\relax }{figure.caption.119}{}}
\newlabel{fig:subim2}{{\relax 11.1d}{164}{ONeill West\relax }{figure.caption.119}{}}
\newlabel{sub@fig:subim2}{{d}{164}{ONeill West\relax }{figure.caption.119}{}}
\@writefile{lof}{\select@language{magyar} \contentsline {figure}{\numberline {\relax 11.1.}{\ignorespaces Oneill\relax }}{164}{figure.caption.119}}
\newlabel{fig:image2}{{\relax 11.1}{164}{Oneill\relax }{figure.caption.119}{}}
\newlabel{fig:subim1}{{\relax 11.2a}{164}{Jaffa South\relax }{figure.caption.120}{}}
\newlabel{sub@fig:subim1}{{a}{164}{Jaffa South\relax }{figure.caption.120}{}}
\newlabel{fig:subim2}{{\relax 11.2b}{164}{Jaffa North\relax }{figure.caption.120}{}}
\newlabel{sub@fig:subim2}{{b}{164}{Jaffa North\relax }{figure.caption.120}{}}
\newlabel{fig:subim2}{{\relax 11.2c}{164}{Jaffa East\relax }{figure.caption.120}{}}
\newlabel{sub@fig:subim2}{{c}{164}{Jaffa East\relax }{figure.caption.120}{}}
\newlabel{fig:subim2}{{\relax 11.2d}{164}{Jaffa West\relax }{figure.caption.120}{}}
\newlabel{sub@fig:subim2}{{d}{164}{Jaffa West\relax }{figure.caption.120}{}}
\@writefile{lof}{\select@language{magyar} \contentsline {figure}{\numberline {\relax 11.2.}{\ignorespaces Jaffa\relax }}{164}{figure.caption.120}}
\newlabel{fig:image2}{{\relax 11.2}{164}{Jaffa\relax }{figure.caption.120}{}}
\@writefile{lof}{\select@language{magyar} \contentsline {figure}{\numberline {\relax 11.3.}{\ignorespaces Replicator\relax }}{164}{figure.caption.121}}
\newlabel{fig:Grafikus}{{\relax 11.3}{164}{Replicator\relax }{figure.caption.121}{}}
\newlabel{fig:subim1}{{\relax 11.4a}{165}{BasicField\relax }{figure.caption.122}{}}
\newlabel{sub@fig:subim1}{{a}{165}{BasicField\relax }{figure.caption.122}{}}
\newlabel{fig:subim2}{{\relax 11.4b}{165}{Wall\relax }{figure.caption.122}{}}
\newlabel{sub@fig:subim2}{{b}{165}{Wall\relax }{figure.caption.122}{}}
\newlabel{fig:subim2}{{\relax 11.4c}{165}{SpecialWall\relax }{figure.caption.122}{}}
\newlabel{sub@fig:subim2}{{c}{165}{SpecialWall\relax }{figure.caption.122}{}}
\@writefile{lof}{\select@language{magyar} \contentsline {figure}{\numberline {\relax 11.4.}{\ignorespaces Field Elements\relax }}{165}{figure.caption.122}}
\newlabel{fig:image2}{{\relax 11.4}{165}{Field Elements\relax }{figure.caption.122}{}}
\newlabel{fig:subim1}{{\relax 11.5a}{165}{ZPM\relax }{figure.caption.123}{}}
\newlabel{sub@fig:subim1}{{a}{165}{ZPM\relax }{figure.caption.123}{}}
\newlabel{fig:subim2}{{\relax 11.5b}{165}{Pit\relax }{figure.caption.123}{}}
\newlabel{sub@fig:subim2}{{b}{165}{Pit\relax }{figure.caption.123}{}}
\newlabel{fig:subim2}{{\relax 11.5c}{165}{Box\relax }{figure.caption.123}{}}
\newlabel{sub@fig:subim2}{{c}{165}{Box\relax }{figure.caption.123}{}}
\@writefile{lof}{\select@language{magyar} \contentsline {figure}{\numberline {\relax 11.5.}{\ignorespaces Field Elements\relax }}{165}{figure.caption.123}}
\newlabel{fig:image2}{{\relax 11.5}{165}{Field Elements\relax }{figure.caption.123}{}}
\newlabel{fig:subim1}{{\relax 11.6a}{165}{Closed door\relax }{figure.caption.124}{}}
\newlabel{sub@fig:subim1}{{a}{165}{Closed door\relax }{figure.caption.124}{}}
\newlabel{fig:subim2}{{\relax 11.6b}{165}{Open door\relax }{figure.caption.124}{}}
\newlabel{sub@fig:subim2}{{b}{165}{Open door\relax }{figure.caption.124}{}}
\newlabel{fig:subim1}{{\relax 11.6c}{165}{Off switch\relax }{figure.caption.124}{}}
\newlabel{sub@fig:subim1}{{c}{165}{Off switch\relax }{figure.caption.124}{}}
\newlabel{fig:subim2}{{\relax 11.6d}{165}{On switch\relax }{figure.caption.124}{}}
\newlabel{sub@fig:subim2}{{d}{165}{On switch\relax }{figure.caption.124}{}}
\@writefile{lof}{\select@language{magyar} \contentsline {figure}{\numberline {\relax 11.6.}{\ignorespaces Door and Switch\relax }}{165}{figure.caption.124}}
\newlabel{fig:image2}{{\relax 11.6}{165}{Door and Switch\relax }{figure.caption.124}{}}
\newlabel{fig:subim1}{{\relax 11.7a}{165}{Blue stargate\relax }{figure.caption.125}{}}
\newlabel{sub@fig:subim1}{{a}{165}{Blue stargate\relax }{figure.caption.125}{}}
\newlabel{fig:subim2}{{\relax 11.7b}{165}{Yellow stargate\relax }{figure.caption.125}{}}
\newlabel{sub@fig:subim2}{{b}{165}{Yellow stargate\relax }{figure.caption.125}{}}
\newlabel{fig:subim2}{{\relax 11.7c}{165}{Green stargate\relax }{figure.caption.125}{}}
\newlabel{sub@fig:subim2}{{c}{165}{Green stargate\relax }{figure.caption.125}{}}
\newlabel{fig:subim2}{{\relax 11.7d}{165}{Red stargate\relax }{figure.caption.125}{}}
\newlabel{sub@fig:subim2}{{d}{165}{Red stargate\relax }{figure.caption.125}{}}
\@writefile{lof}{\select@language{magyar} \contentsline {figure}{\numberline {\relax 11.7.}{\ignorespaces Stargate\relax }}{165}{figure.caption.125}}
\newlabel{fig:image2}{{\relax 11.7}{165}{Stargate\relax }{figure.caption.125}{}}
\@writefile{toc}{\select@language{magyar} \contentsline {section}{\numberline {11.2}A grafikus rendszer architekt\IeC {\'u}r\IeC {\'a}ja}{166}{section.11.2}}
\@writefile{toc}{\select@language{magyar} \contentsline {subsection}{\numberline {11.2.1}A fel\IeC {\"u}let m\IeC {\H u}k\IeC {\"o}d\IeC {\'e}si elve}{166}{subsection.11.2.1}}
\@writefile{lof}{\select@language{magyar} \contentsline {figure}{\numberline {\relax 11.8.}{\ignorespaces Wall\relax }}{167}{figure.caption.126}}
\newlabel{fig:Grafikus}{{\relax 11.8}{167}{Wall\relax }{figure.caption.126}{}}
\@writefile{toc}{\select@language{magyar} \contentsline {section}{\numberline {11.3}A grafikus objektumok felsorol\IeC {\'a}sa}{168}{section.11.3}}
\@writefile{toc}{\select@language{magyar} \contentsline {subsection}{\numberline {11.3.1}Drawable}{168}{subsection.11.3.1}}
\@writefile{toc}{\select@language{magyar} \contentsline {subsection}{\numberline {11.3.2}View}{168}{subsection.11.3.2}}
\@writefile{toc}{\select@language{magyar} \contentsline {subsection}{\numberline {11.3.3}VisualBasicField}{169}{subsection.11.3.3}}
\@writefile{toc}{\select@language{magyar} \contentsline {subsection}{\numberline {11.3.4}VisualBox}{170}{subsection.11.3.4}}
\@writefile{toc}{\select@language{magyar} \contentsline {subsection}{\numberline {11.3.5}VisualPit}{170}{subsection.11.3.5}}
\@writefile{toc}{\select@language{magyar} \contentsline {subsection}{\numberline {11.3.6}VisualReplicator}{171}{subsection.11.3.6}}
\@writefile{toc}{\select@language{magyar} \contentsline {subsection}{\numberline {11.3.7}VisualSpecialWall}{171}{subsection.11.3.7}}
\@writefile{toc}{\select@language{magyar} \contentsline {subsection}{\numberline {11.3.8}VisualWall}{171}{subsection.11.3.8}}
\@writefile{toc}{\select@language{magyar} \contentsline {subsection}{\numberline {11.3.9}VisualZPM}{172}{subsection.11.3.9}}
\@writefile{toc}{\select@language{magyar} \contentsline {subsection}{\numberline {11.3.10}VisualDoor}{172}{subsection.11.3.10}}
\@writefile{toc}{\select@language{magyar} \contentsline {subsection}{\numberline {11.3.11}VisualDoorFactory}{173}{subsection.11.3.11}}
\@writefile{toc}{\select@language{magyar} \contentsline {subsection}{\numberline {11.3.12}VisualSoldier}{173}{subsection.11.3.12}}
\@writefile{toc}{\select@language{magyar} \contentsline {subsection}{\numberline {11.3.13}VisualSoldierFactory}{173}{subsection.11.3.13}}
\@writefile{toc}{\select@language{magyar} \contentsline {subsection}{\numberline {11.3.14}VisualStargate}{174}{subsection.11.3.14}}
\@writefile{toc}{\select@language{magyar} \contentsline {subsection}{\numberline {11.3.15}VisualStargateFactory}{174}{subsection.11.3.15}}
\@writefile{toc}{\select@language{magyar} \contentsline {subsection}{\numberline {11.3.16}VisualSwitch}{175}{subsection.11.3.16}}
\@writefile{toc}{\select@language{magyar} \contentsline {subsection}{\numberline {11.3.17}VisualSwitchFactory}{175}{subsection.11.3.17}}
\@writefile{toc}{\select@language{magyar} \contentsline {section}{\numberline {11.4}Kapcsolat az alkalmaz\IeC {\'o}i rendszerrel}{176}{section.11.4}}
\@writefile{lof}{\select@language{magyar} \contentsline {figure}{\numberline {\relax 11.9.}{\ignorespaces Initialisation\relax }}{176}{figure.caption.127}}
\newlabel{fig:Grafikus}{{\relax 11.9}{176}{Initialisation\relax }{figure.caption.127}{}}
\@writefile{lof}{\select@language{magyar} \contentsline {figure}{\numberline {\relax 11.10.}{\ignorespaces Pull\relax }}{177}{figure.caption.128}}
\newlabel{fig:Grafikus}{{\relax 11.10}{177}{Pull\relax }{figure.caption.128}{}}
\@writefile{lof}{\select@language{magyar} \contentsline {figure}{\numberline {\relax 11.11.}{\ignorespaces Soldier moves\relax }}{178}{figure.caption.129}}
\newlabel{fig:Grafikus}{{\relax 11.11}{178}{Soldier moves\relax }{figure.caption.129}{}}
\@writefile{lof}{\select@language{magyar} \contentsline {figure}{\numberline {\relax 11.12.}{\ignorespaces Soldier shoots\relax }}{178}{figure.caption.130}}
\newlabel{fig:Grafikus}{{\relax 11.12}{178}{Soldier shoots\relax }{figure.caption.130}{}}
\@writefile{lof}{\select@language{magyar} \contentsline {figure}{\numberline {\relax 11.13.}{\ignorespaces Soldier drops box\relax }}{179}{figure.caption.131}}
\newlabel{fig:Grafikus}{{\relax 11.13}{179}{Soldier drops box\relax }{figure.caption.131}{}}
\@writefile{lof}{\select@language{magyar} \contentsline {figure}{\numberline {\relax 11.14.}{\ignorespaces Soldier picks up box\relax }}{179}{figure.caption.132}}
\newlabel{fig:Grafikus}{{\relax 11.14}{179}{Soldier picks up box\relax }{figure.caption.132}{}}
\@writefile{lof}{\select@language{magyar} \contentsline {figure}{\numberline {\relax 11.15.}{\ignorespaces Soldier turns\relax }}{180}{figure.caption.133}}
\newlabel{fig:Grafikus}{{\relax 11.15}{180}{Soldier turns\relax }{figure.caption.133}{}}
\gdef \LT@cxxx {\LT@entry 
    {3}{91.6678pt}\LT@entry 
    {3}{74.59596pt}\LT@entry 
    {3}{97.35826pt}\LT@entry 
    {3}{211.16928pt}}
\@writefile{toc}{\select@language{magyar} \contentsline {section}{\numberline {11.5}Napl\IeC {\'o}}{181}{section.11.5}}
\gdef \LT@cxxxi {\LT@entry 
    {3}{125.81102pt}\LT@entry 
    {3}{68.9055pt}\LT@entry 
    {3}{97.35826pt}\LT@entry 
    {3}{182.71652pt}}
\@writefile{toc}{\select@language{magyar} \contentsline {chapter}{\numberline {13}Grafikus fel\IeC {\"u}let specifik\IeC {\'a}ci\IeC {\'o}ja}{182}{chapter.13}}
\@writefile{lof}{\select@language{magyar} \addvspace {10\p@ }}
\@writefile{lot}{\select@language{magyar} \addvspace {10\p@ }}
\@writefile{lol}{\select@language{magyar} \addvspace {10\p@ }}
\@writefile{toc}{\select@language{magyar} \contentsline {section}{\numberline {13.1}Ford\IeC {\'\i }t\IeC {\'a}si \IeC {\'e}s futtat\IeC {\'a}si \IeC {\'u}tmutat\IeC {\'o}}{182}{section.13.1}}
\@writefile{toc}{\select@language{magyar} \contentsline {subsection}{\numberline {13.1.1}F\IeC {\'a}jllista}{182}{subsection.13.1.1}}
\@writefile{toc}{\select@language{magyar} \contentsline {subsection}{\numberline {13.1.2}Ford\IeC {\'\i }t\IeC {\'a}s}{183}{subsection.13.1.2}}
\@writefile{toc}{\select@language{magyar} \contentsline {subsection}{\numberline {13.1.3}Futtat\IeC {\'a}s}{183}{subsection.13.1.3}}
\gdef \LT@cxxxii {\LT@entry 
    {3}{182.71652pt}\LT@entry 
    {1}{105.39151pt}\LT@entry 
    {3}{182.71652pt}}
\gdef \LT@cxxxiii {\LT@entry 
    {3}{91.6678pt}\LT@entry 
    {3}{74.59596pt}\LT@entry 
    {3}{97.35826pt}\LT@entry 
    {3}{211.16928pt}}
\@writefile{toc}{\select@language{magyar} \contentsline {section}{\numberline {13.2}\IeC {\'E}rt\IeC {\'e}kel\IeC {\'e}s}{184}{section.13.2}}
\@writefile{toc}{\select@language{magyar} \contentsline {section}{\numberline {13.3}Napl\IeC {\'o}}{184}{section.13.3}}
\gdef \LT@cxxxiv {\LT@entry 
    {3}{182.71652pt}\LT@entry 
    {3}{97.35826pt}}
\gdef \LT@cxxxv {\LT@entry 
    {3}{182.71652pt}\LT@entry 
    {3}{97.35826pt}}
\@writefile{toc}{\select@language{magyar} \contentsline {chapter}{\numberline {14}\IeC {\"O}sszefoglal\IeC {\'a}s}{185}{chapter.14}}
\@writefile{lof}{\select@language{magyar} \addvspace {10\p@ }}
\@writefile{lot}{\select@language{magyar} \addvspace {10\p@ }}
\@writefile{lol}{\select@language{magyar} \addvspace {10\p@ }}
\@writefile{toc}{\select@language{magyar} \contentsline {section}{\numberline {14.1}Projekt \IeC {\"o}sszegz\IeC {\'e}s}{185}{section.14.1}}
